﻿# Wavefront OBJ file automatically generated by Tiled2Unity

# Vertices (Count = 1365)
v 0 -2 0
v -2 -2 0
v -2 0 0
v 0 0 0
v -4 -2 0
v -4 0 0
v -6 -2 0
v -6 0 0
v -8 -2 0
v -8 0 0
v -10 -2 0
v -10 0 0
v -12 -2 0
v -12 0 0
v -14 -2 0
v -14 0 0
v -16 -2 0
v -16 0 0
v -18 -2 0
v -18 0 0
v -20 -2 0
v -20 0 0
v -22 -2 0
v -22 0 0
v -24 -2 0
v -24 0 0
v -26 -2 0
v -26 0 0
v -28 -2 0
v -28 0 0
v -30 -2 0
v -30 0 0
v -32 -2 0
v -32 0 0
v -34 -2 0
v -34 0 0
v -36 -2 0
v -36 0 0
v -38 -2 0
v -38 0 0
v -40 -2 0
v -40 0 0
v -42 -2 0
v -42 0 0
v -44 -2 0
v -44 0 0
v -46 -2 0
v -46 0 0
v -48 -2 0
v -48 0 0
v -50 -2 0
v -50 0 0
v -52 -2 0
v -52 0 0
v -54 -2 0
v -54 0 0
v -56 -2 0
v -56 0 0
v -58 -2 0
v -58 0 0
v -60 -2 0
v -60 0 0
v -62 -2 0
v -62 0 0
v -64 -2 0
v -64 0 0
v -66 -2 0
v -66 0 0
v -68 -2 0
v -68 0 0
v 0 -4 0
v -2 -4 0
v -4 -4 0
v -6 -4 0
v -8 -4 0
v -10 -4 0
v -12 -4 0
v -14 -4 0
v -16 -4 0
v -18 -4 0
v -20 -4 0
v -22 -4 0
v -24 -4 0
v -26 -4 0
v -28 -4 0
v -30 -4 0
v -32 -4 0
v -34 -4 0
v -36 -4 0
v -38 -4 0
v -40 -4 0
v -42 -4 0
v -44 -4 0
v -46 -4 0
v -48 -4 0
v -50 -4 0
v -52 -4 0
v -54 -4 0
v -56 -4 0
v -58 -4 0
v -60 -4 0
v -62 -4 0
v -64 -4 0
v -66 -4 0
v -68 -4 0
v 0 -6 0
v -2 -6 0
v -4 -6 0
v -6 -6 0
v -8 -6 0
v -10 -6 0
v -12 -6 0
v -14 -6 0
v -16 -6 0
v -18 -6 0
v -20 -6 0
v -22 -6 0
v -24 -6 0
v -26 -6 0
v -28 -6 0
v -30 -6 0
v -32 -6 0
v -34 -6 0
v -36 -6 0
v -38 -6 0
v -40 -6 0
v -42 -6 0
v -44 -6 0
v -46 -6 0
v -48 -6 0
v -50 -6 0
v -52 -6 0
v -54 -6 0
v -56 -6 0
v -58 -6 0
v -60 -6 0
v -62 -6 0
v -64 -6 0
v -66 -6 0
v -68 -6 0
v 0 -8 0
v -2 -8 0
v -4 -8 0
v -6 -8 0
v -8 -8 0
v -10 -8 0
v -12 -8 0
v -14 -8 0
v -16 -8 0
v -18 -8 0
v -20 -8 0
v -22 -8 0
v -24 -8 0
v -26 -8 0
v -28 -8 0
v -30 -8 0
v -32 -8 0
v -34 -8 0
v -36 -8 0
v -38 -8 0
v -40 -8 0
v -42 -8 0
v -44 -8 0
v -46 -8 0
v -48 -8 0
v -50 -8 0
v -52 -8 0
v -54 -8 0
v -56 -8 0
v -58 -8 0
v -60 -8 0
v -62 -8 0
v -64 -8 0
v -66 -8 0
v -68 -8 0
v 0 -10 0
v -2 -10 0
v -4 -10 0
v -6 -10 0
v -8 -10 0
v -10 -10 0
v -12 -10 0
v -14 -10 0
v -16 -10 0
v -18 -10 0
v -20 -10 0
v -22 -10 0
v -24 -10 0
v -26 -10 0
v -28 -10 0
v -30 -10 0
v -32 -10 0
v -34 -10 0
v -36 -10 0
v -38 -10 0
v -40 -10 0
v -42 -10 0
v -44 -10 0
v -46 -10 0
v -48 -10 0
v -50 -10 0
v -52 -10 0
v -54 -10 0
v -56 -10 0
v -58 -10 0
v -60 -10 0
v -62 -10 0
v -64 -10 0
v -66 -10 0
v -68 -10 0
v 0 -12 0
v -2 -12 0
v -4 -12 0
v -6 -12 0
v -8 -12 0
v -10 -12 0
v -12 -12 0
v -14 -12 0
v -16 -12 0
v -18 -12 0
v -20 -12 0
v -22 -12 0
v -24 -12 0
v -26 -12 0
v -28 -12 0
v -30 -12 0
v -32 -12 0
v -34 -12 0
v -36 -12 0
v -38 -12 0
v -40 -12 0
v -42 -12 0
v -44 -12 0
v -46 -12 0
v -48 -12 0
v -50 -12 0
v -52 -12 0
v -54 -12 0
v -56 -12 0
v -58 -12 0
v -60 -12 0
v -62 -12 0
v -64 -12 0
v -66 -12 0
v -68 -12 0
v 0 -14 0
v -2 -14 0
v -4 -14 0
v -6 -14 0
v -8 -14 0
v -10 -14 0
v -12 -14 0
v -14 -14 0
v -16 -14 0
v -18 -14 0
v -20 -14 0
v -22 -14 0
v -24 -14 0
v -26 -14 0
v -28 -14 0
v -30 -14 0
v -32 -14 0
v -34 -14 0
v -36 -14 0
v -38 -14 0
v -40 -14 0
v -42 -14 0
v -44 -14 0
v -46 -14 0
v -48 -14 0
v -50 -14 0
v -52 -14 0
v -54 -14 0
v -56 -14 0
v -58 -14 0
v -60 -14 0
v -62 -14 0
v -64 -14 0
v -66 -14 0
v -68 -14 0
v 0 -16 0
v -2 -16 0
v -4 -16 0
v -6 -16 0
v -8 -16 0
v -10 -16 0
v -12 -16 0
v -14 -16 0
v -16 -16 0
v -18 -16 0
v -20 -16 0
v -22 -16 0
v -24 -16 0
v -26 -16 0
v -28 -16 0
v -30 -16 0
v -32 -16 0
v -34 -16 0
v -36 -16 0
v -38 -16 0
v -40 -16 0
v -42 -16 0
v -44 -16 0
v -46 -16 0
v -48 -16 0
v -50 -16 0
v -52 -16 0
v -54 -16 0
v -56 -16 0
v -58 -16 0
v -60 -16 0
v -62 -16 0
v -64 -16 0
v -66 -16 0
v -68 -16 0
v 0 -18 0
v -2 -18 0
v -4 -18 0
v -6 -18 0
v -8 -18 0
v -10 -18 0
v -12 -18 0
v -14 -18 0
v -16 -18 0
v -18 -18 0
v -20 -18 0
v -22 -18 0
v -24 -18 0
v -26 -18 0
v -28 -18 0
v -30 -18 0
v -32 -18 0
v -34 -18 0
v -36 -18 0
v -38 -18 0
v -40 -18 0
v -42 -18 0
v -44 -18 0
v -46 -18 0
v -48 -18 0
v -50 -18 0
v -52 -18 0
v -54 -18 0
v -56 -18 0
v -58 -18 0
v -60 -18 0
v -62 -18 0
v -64 -18 0
v -66 -18 0
v -68 -18 0
v 0 -20 0
v -2 -20 0
v -4 -20 0
v -6 -20 0
v -8 -20 0
v -10 -20 0
v -12 -20 0
v -14 -20 0
v -16 -20 0
v -18 -20 0
v -20 -20 0
v -22 -20 0
v -24 -20 0
v -26 -20 0
v -28 -20 0
v -30 -20 0
v -32 -20 0
v -34 -20 0
v -36 -20 0
v -38 -20 0
v -40 -20 0
v -42 -20 0
v -44 -20 0
v -46 -20 0
v -48 -20 0
v -50 -20 0
v -52 -20 0
v -54 -20 0
v -56 -20 0
v -58 -20 0
v -60 -20 0
v -62 -20 0
v -64 -20 0
v -66 -20 0
v -68 -20 0
v 0 -22 0
v -2 -22 0
v -4 -22 0
v -6 -22 0
v -8 -22 0
v -10 -22 0
v -12 -22 0
v -14 -22 0
v -16 -22 0
v -18 -22 0
v -20 -22 0
v -22 -22 0
v -24 -22 0
v -26 -22 0
v -28 -22 0
v -30 -22 0
v -32 -22 0
v -34 -22 0
v -36 -22 0
v -38 -22 0
v -40 -22 0
v -42 -22 0
v -44 -22 0
v -46 -22 0
v -48 -22 0
v -50 -22 0
v -52 -22 0
v -54 -22 0
v -56 -22 0
v -58 -22 0
v -60 -22 0
v -62 -22 0
v -64 -22 0
v -66 -22 0
v -68 -22 0
v 0 -24 0
v -2 -24 0
v -4 -24 0
v -6 -24 0
v -8 -24 0
v -10 -24 0
v -12 -24 0
v -14 -24 0
v -16 -24 0
v -18 -24 0
v -20 -24 0
v -22 -24 0
v -24 -24 0
v -26 -24 0
v -28 -24 0
v -30 -24 0
v -32 -24 0
v -34 -24 0
v -36 -24 0
v -38 -24 0
v -40 -24 0
v -42 -24 0
v -44 -24 0
v -46 -24 0
v -48 -24 0
v -50 -24 0
v -52 -24 0
v -54 -24 0
v -56 -24 0
v -58 -24 0
v -60 -24 0
v -62 -24 0
v -64 -24 0
v -66 -24 0
v -68 -24 0
v 0 -26 0
v -2 -26 0
v -4 -26 0
v -6 -26 0
v -8 -26 0
v -10 -26 0
v -12 -26 0
v -14 -26 0
v -16 -26 0
v -18 -26 0
v -20 -26 0
v -22 -26 0
v -24 -26 0
v -26 -26 0
v -28 -26 0
v -30 -26 0
v -32 -26 0
v -34 -26 0
v -36 -26 0
v -38 -26 0
v -40 -26 0
v -42 -26 0
v -44 -26 0
v -46 -26 0
v -48 -26 0
v -50 -26 0
v -52 -26 0
v -54 -26 0
v -56 -26 0
v -58 -26 0
v -60 -26 0
v -62 -26 0
v -64 -26 0
v -66 -26 0
v -68 -26 0
v 0 -28 0
v -2 -28 0
v -4 -28 0
v -6 -28 0
v -8 -28 0
v -10 -28 0
v -12 -28 0
v -14 -28 0
v -16 -28 0
v -18 -28 0
v -20 -28 0
v -22 -28 0
v -24 -28 0
v -26 -28 0
v -28 -28 0
v -30 -28 0
v -32 -28 0
v -34 -28 0
v -36 -28 0
v -38 -28 0
v -40 -28 0
v -42 -28 0
v -44 -28 0
v -46 -28 0
v -48 -28 0
v -50 -28 0
v -52 -28 0
v -54 -28 0
v -56 -28 0
v -58 -28 0
v -60 -28 0
v -62 -28 0
v -64 -28 0
v -66 -28 0
v -68 -28 0
v 0 -30 0
v -2 -30 0
v -4 -30 0
v -6 -30 0
v -8 -30 0
v -10 -30 0
v -12 -30 0
v -14 -30 0
v -16 -30 0
v -18 -30 0
v -20 -30 0
v -22 -30 0
v -24 -30 0
v -26 -30 0
v -28 -30 0
v -30 -30 0
v -32 -30 0
v -34 -30 0
v -36 -30 0
v -38 -30 0
v -40 -30 0
v -42 -30 0
v -44 -30 0
v -46 -30 0
v -48 -30 0
v -50 -30 0
v -52 -30 0
v -54 -30 0
v -56 -30 0
v -58 -30 0
v -60 -30 0
v -62 -30 0
v -64 -30 0
v -66 -30 0
v -68 -30 0
v 0 -32 0
v -2 -32 0
v -4 -32 0
v -6 -32 0
v -8 -32 0
v -10 -32 0
v -12 -32 0
v -14 -32 0
v -16 -32 0
v -18 -32 0
v -20 -32 0
v -22 -32 0
v -24 -32 0
v -26 -32 0
v -28 -32 0
v -30 -32 0
v -32 -32 0
v -34 -32 0
v -36 -32 0
v -38 -32 0
v -40 -32 0
v -42 -32 0
v -44 -32 0
v -46 -32 0
v -48 -32 0
v -50 -32 0
v -52 -32 0
v -54 -32 0
v -56 -32 0
v -58 -32 0
v -60 -32 0
v -62 -32 0
v -64 -32 0
v -66 -32 0
v -68 -32 0
v 0 -34 0
v -2 -34 0
v -4 -34 0
v -6 -34 0
v -8 -34 0
v -10 -34 0
v -12 -34 0
v -14 -34 0
v -16 -34 0
v -18 -34 0
v -20 -34 0
v -22 -34 0
v -24 -34 0
v -26 -34 0
v -28 -34 0
v -30 -34 0
v -32 -34 0
v -34 -34 0
v -36 -34 0
v -38 -34 0
v -40 -34 0
v -42 -34 0
v -44 -34 0
v -46 -34 0
v -48 -34 0
v -50 -34 0
v -52 -34 0
v -54 -34 0
v -56 -34 0
v -58 -34 0
v -60 -34 0
v -62 -34 0
v -64 -34 0
v -66 -34 0
v -68 -34 0
v 0 -36 0
v -2 -36 0
v -4 -36 0
v -6 -36 0
v -8 -36 0
v -10 -36 0
v -12 -36 0
v -14 -36 0
v -16 -36 0
v -18 -36 0
v -20 -36 0
v -22 -36 0
v -24 -36 0
v -26 -36 0
v -28 -36 0
v -30 -36 0
v -32 -36 0
v -34 -36 0
v -36 -36 0
v -38 -36 0
v -40 -36 0
v -42 -36 0
v -44 -36 0
v -46 -36 0
v -48 -36 0
v -50 -36 0
v -52 -36 0
v -54 -36 0
v -56 -36 0
v -58 -36 0
v -60 -36 0
v -62 -36 0
v -64 -36 0
v -66 -36 0
v -68 -36 0
v 0 -38 0
v -2 -38 0
v -4 -38 0
v -6 -38 0
v -8 -38 0
v -10 -38 0
v -12 -38 0
v -14 -38 0
v -16 -38 0
v -18 -38 0
v -20 -38 0
v -22 -38 0
v -24 -38 0
v -26 -38 0
v -28 -38 0
v -30 -38 0
v -32 -38 0
v -34 -38 0
v -36 -38 0
v -38 -38 0
v -40 -38 0
v -42 -38 0
v -44 -38 0
v -46 -38 0
v -48 -38 0
v -50 -38 0
v -52 -38 0
v -54 -38 0
v -56 -38 0
v -58 -38 0
v -60 -38 0
v -62 -38 0
v -64 -38 0
v -66 -38 0
v -68 -38 0
v 0 -40 0
v -2 -40 0
v -4 -40 0
v -6 -40 0
v -8 -40 0
v -10 -40 0
v -12 -40 0
v -14 -40 0
v -16 -40 0
v -18 -40 0
v -20 -40 0
v -22 -40 0
v -24 -40 0
v -26 -40 0
v -28 -40 0
v -30 -40 0
v -32 -40 0
v -34 -40 0
v -36 -40 0
v -38 -40 0
v -40 -40 0
v -42 -40 0
v -44 -40 0
v -46 -40 0
v -48 -40 0
v -50 -40 0
v -52 -40 0
v -54 -40 0
v -56 -40 0
v -58 -40 0
v -60 -40 0
v -62 -40 0
v -64 -40 0
v -66 -40 0
v -68 -40 0
v 0 -42 0
v -2 -42 0
v -4 -42 0
v -6 -42 0
v -8 -42 0
v -10 -42 0
v -12 -42 0
v -14 -42 0
v -16 -42 0
v -18 -42 0
v -20 -42 0
v -22 -42 0
v -24 -42 0
v -26 -42 0
v -28 -42 0
v -30 -42 0
v -32 -42 0
v -34 -42 0
v -36 -42 0
v -38 -42 0
v -40 -42 0
v -42 -42 0
v -44 -42 0
v -46 -42 0
v -48 -42 0
v -50 -42 0
v -52 -42 0
v -54 -42 0
v -56 -42 0
v -58 -42 0
v -60 -42 0
v -62 -42 0
v -64 -42 0
v -66 -42 0
v -68 -42 0
v 0 -44 0
v -2 -44 0
v -4 -44 0
v -6 -44 0
v -8 -44 0
v -10 -44 0
v -12 -44 0
v -14 -44 0
v -16 -44 0
v -18 -44 0
v -20 -44 0
v -22 -44 0
v -24 -44 0
v -26 -44 0
v -28 -44 0
v -30 -44 0
v -32 -44 0
v -34 -44 0
v -36 -44 0
v -38 -44 0
v -40 -44 0
v -42 -44 0
v -44 -44 0
v -46 -44 0
v -48 -44 0
v -50 -44 0
v -52 -44 0
v -54 -44 0
v -56 -44 0
v -58 -44 0
v -60 -44 0
v -62 -44 0
v -64 -44 0
v -66 -44 0
v -68 -44 0
v 0 -46 0
v -2 -46 0
v -4 -46 0
v -6 -46 0
v -8 -46 0
v -10 -46 0
v -12 -46 0
v -14 -46 0
v -16 -46 0
v -18 -46 0
v -20 -46 0
v -22 -46 0
v -24 -46 0
v -26 -46 0
v -28 -46 0
v -30 -46 0
v -32 -46 0
v -34 -46 0
v -36 -46 0
v -38 -46 0
v -40 -46 0
v -42 -46 0
v -44 -46 0
v -46 -46 0
v -48 -46 0
v -50 -46 0
v -52 -46 0
v -54 -46 0
v -56 -46 0
v -58 -46 0
v -60 -46 0
v -62 -46 0
v -64 -46 0
v -66 -46 0
v -68 -46 0
v 0 -48 0
v -2 -48 0
v -4 -48 0
v -6 -48 0
v -8 -48 0
v -10 -48 0
v -12 -48 0
v -14 -48 0
v -16 -48 0
v -18 -48 0
v -20 -48 0
v -22 -48 0
v -24 -48 0
v -26 -48 0
v -28 -48 0
v -30 -48 0
v -32 -48 0
v -34 -48 0
v -36 -48 0
v -38 -48 0
v -40 -48 0
v -42 -48 0
v -44 -48 0
v -46 -48 0
v -48 -48 0
v -50 -48 0
v -52 -48 0
v -54 -48 0
v -56 -48 0
v -58 -48 0
v -60 -48 0
v -62 -48 0
v -64 -48 0
v -66 -48 0
v -68 -48 0
v 0 -50 0
v -2 -50 0
v -4 -50 0
v -6 -50 0
v -8 -50 0
v -10 -50 0
v -12 -50 0
v -14 -50 0
v -16 -50 0
v -18 -50 0
v -20 -50 0
v -22 -50 0
v -24 -50 0
v -26 -50 0
v -28 -50 0
v -30 -50 0
v -32 -50 0
v -34 -50 0
v -36 -50 0
v -38 -50 0
v -40 -50 0
v -42 -50 0
v -44 -50 0
v -46 -50 0
v -48 -50 0
v -50 -50 0
v -52 -50 0
v -54 -50 0
v -56 -50 0
v -58 -50 0
v -60 -50 0
v -62 -50 0
v -64 -50 0
v -66 -50 0
v -68 -50 0
v 0 -52 0
v -2 -52 0
v -4 -52 0
v -6 -52 0
v -8 -52 0
v -10 -52 0
v -12 -52 0
v -14 -52 0
v -16 -52 0
v -18 -52 0
v -20 -52 0
v -22 -52 0
v -24 -52 0
v -26 -52 0
v -28 -52 0
v -30 -52 0
v -32 -52 0
v -34 -52 0
v -36 -52 0
v -38 -52 0
v -40 -52 0
v -42 -52 0
v -44 -52 0
v -46 -52 0
v -48 -52 0
v -50 -52 0
v -52 -52 0
v -54 -52 0
v -56 -52 0
v -58 -52 0
v -60 -52 0
v -62 -52 0
v -64 -52 0
v -66 -52 0
v -68 -52 0
v 0 -54 0
v -2 -54 0
v -4 -54 0
v -6 -54 0
v -8 -54 0
v -10 -54 0
v -12 -54 0
v -14 -54 0
v -16 -54 0
v -18 -54 0
v -20 -54 0
v -22 -54 0
v -24 -54 0
v -26 -54 0
v -28 -54 0
v -30 -54 0
v -32 -54 0
v -34 -54 0
v -36 -54 0
v -38 -54 0
v -40 -54 0
v -42 -54 0
v -44 -54 0
v -46 -54 0
v -48 -54 0
v -50 -54 0
v -52 -54 0
v -54 -54 0
v -56 -54 0
v -58 -54 0
v -60 -54 0
v -62 -54 0
v -64 -54 0
v -66 -54 0
v -68 -54 0
v 0 -56 0
v -2 -56 0
v -4 -56 0
v -6 -56 0
v -8 -56 0
v -10 -56 0
v -12 -56 0
v -14 -56 0
v -16 -56 0
v -18 -56 0
v -20 -56 0
v -22 -56 0
v -24 -56 0
v -26 -56 0
v -28 -56 0
v -30 -56 0
v -32 -56 0
v -34 -56 0
v -36 -56 0
v -38 -56 0
v -40 -56 0
v -42 -56 0
v -44 -56 0
v -46 -56 0
v -48 -56 0
v -50 -56 0
v -52 -56 0
v -54 -56 0
v -56 -56 0
v -58 -56 0
v -60 -56 0
v -62 -56 0
v -64 -56 0
v -66 -56 0
v -68 -56 0
v 0 -58 0
v -2 -58 0
v -4 -58 0
v -6 -58 0
v -8 -58 0
v -10 -58 0
v -12 -58 0
v -14 -58 0
v -16 -58 0
v -18 -58 0
v -20 -58 0
v -22 -58 0
v -24 -58 0
v -26 -58 0
v -28 -58 0
v -30 -58 0
v -32 -58 0
v -34 -58 0
v -36 -58 0
v -38 -58 0
v -40 -58 0
v -42 -58 0
v -44 -58 0
v -46 -58 0
v -48 -58 0
v -50 -58 0
v -52 -58 0
v -54 -58 0
v -56 -58 0
v -58 -58 0
v -60 -58 0
v -62 -58 0
v -64 -58 0
v -66 -58 0
v -68 -58 0
v 0 -60 0
v -2 -60 0
v -4 -60 0
v -6 -60 0
v -8 -60 0
v -10 -60 0
v -12 -60 0
v -14 -60 0
v -16 -60 0
v -18 -60 0
v -20 -60 0
v -22 -60 0
v -24 -60 0
v -26 -60 0
v -28 -60 0
v -30 -60 0
v -32 -60 0
v -34 -60 0
v -36 -60 0
v -38 -60 0
v -40 -60 0
v -42 -60 0
v -44 -60 0
v -46 -60 0
v -48 -60 0
v -50 -60 0
v -52 -60 0
v -54 -60 0
v -56 -60 0
v -58 -60 0
v -60 -60 0
v -62 -60 0
v -64 -60 0
v -66 -60 0
v -68 -60 0
v 0 -62 0
v -2 -62 0
v -4 -62 0
v -6 -62 0
v -8 -62 0
v -10 -62 0
v -12 -62 0
v -14 -62 0
v -16 -62 0
v -18 -62 0
v -20 -62 0
v -22 -62 0
v -24 -62 0
v -26 -62 0
v -28 -62 0
v -30 -62 0
v -32 -62 0
v -34 -62 0
v -36 -62 0
v -38 -62 0
v -40 -62 0
v -42 -62 0
v -44 -62 0
v -46 -62 0
v -48 -62 0
v -50 -62 0
v -52 -62 0
v -54 -62 0
v -56 -62 0
v -58 -62 0
v -60 -62 0
v -62 -62 0
v -64 -62 0
v -66 -62 0
v -68 -62 0
v 0 -64 0
v -2 -64 0
v -4 -64 0
v -6 -64 0
v -8 -64 0
v -10 -64 0
v -12 -64 0
v -14 -64 0
v -16 -64 0
v -18 -64 0
v -20 -64 0
v -22 -64 0
v -24 -64 0
v -26 -64 0
v -28 -64 0
v -30 -64 0
v -32 -64 0
v -34 -64 0
v -36 -64 0
v -38 -64 0
v -40 -64 0
v -42 -64 0
v -44 -64 0
v -46 -64 0
v -48 -64 0
v -50 -64 0
v -52 -64 0
v -54 -64 0
v -56 -64 0
v -58 -64 0
v -60 -64 0
v -62 -64 0
v -64 -64 0
v -66 -64 0
v -68 -64 0
v 0 -66 0
v -2 -66 0
v -4 -66 0
v -6 -66 0
v -8 -66 0
v -10 -66 0
v -12 -66 0
v -14 -66 0
v -16 -66 0
v -18 -66 0
v -20 -66 0
v -22 -66 0
v -24 -66 0
v -26 -66 0
v -28 -66 0
v -30 -66 0
v -32 -66 0
v -34 -66 0
v -36 -66 0
v -38 -66 0
v -40 -66 0
v -42 -66 0
v -44 -66 0
v -46 -66 0
v -48 -66 0
v -50 -66 0
v -52 -66 0
v -54 -66 0
v -56 -66 0
v -58 -66 0
v -60 -66 0
v -62 -66 0
v -64 -66 0
v -66 -66 0
v -68 -66 0
v 0 -68 0
v -2 -68 0
v -4 -68 0
v -6 -68 0
v -8 -68 0
v -10 -68 0
v -12 -68 0
v -14 -68 0
v -16 -68 0
v -18 -68 0
v -20 -68 0
v -22 -68 0
v -24 -68 0
v -26 -68 0
v -28 -68 0
v -30 -68 0
v -32 -68 0
v -34 -68 0
v -36 -68 0
v -38 -68 0
v -40 -68 0
v -42 -68 0
v -44 -68 0
v -46 -68 0
v -48 -68 0
v -50 -68 0
v -52 -68 0
v -54 -68 0
v -56 -68 0
v -58 -68 0
v -60 -68 0
v -62 -68 0
v -64 -68 0
v -66 -68 0
v -68 -68 0
v 0 -70 0
v -2 -70 0
v -4 -70 0
v -6 -70 0
v -8 -70 0
v -10 -70 0
v -12 -70 0
v -14 -70 0
v -16 -70 0
v -18 -70 0
v -20 -70 0
v -22 -70 0
v -24 -70 0
v -26 -70 0
v -28 -70 0
v -30 -70 0
v -32 -70 0
v -34 -70 0
v -36 -70 0
v -38 -70 0
v -40 -70 0
v -42 -70 0
v -44 -70 0
v -46 -70 0
v -48 -70 0
v -50 -70 0
v -52 -70 0
v -54 -70 0
v -56 -70 0
v -58 -70 0
v -60 -70 0
v -62 -70 0
v -64 -70 0
v -66 -70 0
v -68 -70 0
v 0 -72 0
v -2 -72 0
v -4 -72 0
v -6 -72 0
v -8 -72 0
v -10 -72 0
v -12 -72 0
v -14 -72 0
v -16 -72 0
v -18 -72 0
v -20 -72 0
v -22 -72 0
v -24 -72 0
v -26 -72 0
v -28 -72 0
v -30 -72 0
v -32 -72 0
v -34 -72 0
v -36 -72 0
v -38 -72 0
v -40 -72 0
v -42 -72 0
v -44 -72 0
v -46 -72 0
v -48 -72 0
v -50 -72 0
v -52 -72 0
v -54 -72 0
v -56 -72 0
v -58 -72 0
v -60 -72 0
v -62 -72 0
v -64 -72 0
v -66 -72 0
v -68 -72 0
v 0 -74 0
v -2 -74 0
v -4 -74 0
v -6 -74 0
v -8 -74 0
v -10 -74 0
v -12 -74 0
v -14 -74 0
v -16 -74 0
v -18 -74 0
v -20 -74 0
v -22 -74 0
v -24 -74 0
v -26 -74 0
v -28 -74 0
v -30 -74 0
v -32 -74 0
v -34 -74 0
v -36 -74 0
v -38 -74 0
v -40 -74 0
v -42 -74 0
v -44 -74 0
v -46 -74 0
v -48 -74 0
v -50 -74 0
v -52 -74 0
v -54 -74 0
v -56 -74 0
v -58 -74 0
v -60 -74 0
v -62 -74 0
v -64 -74 0
v -66 -74 0
v -68 -74 0
v 0 -76 0
v -2 -76 0
v -4 -76 0
v -6 -76 0
v -8 -76 0
v -10 -76 0
v -12 -76 0
v -14 -76 0
v -16 -76 0
v -18 -76 0
v -20 -76 0
v -22 -76 0
v -24 -76 0
v -26 -76 0
v -28 -76 0
v -30 -76 0
v -32 -76 0
v -34 -76 0
v -36 -76 0
v -38 -76 0
v -40 -76 0
v -42 -76 0
v -44 -76 0
v -46 -76 0
v -48 -76 0
v -50 -76 0
v -52 -76 0
v -54 -76 0
v -56 -76 0
v -58 -76 0
v -60 -76 0
v -62 -76 0
v -64 -76 0
v -66 -76 0
v -68 -76 0

# Texture cooridinates (Count = 4)
vt 0.0001220703 0.0001220703
vt 0.9998779 0.0001220703
vt 0.9998779 0.9998779
vt 0.0001220703 0.9998779

# Normal
vn 0 0 -1

# Groups (Count = 1)

g mesh_0001
f 1/1/1 2/2/1 3/3/1 4/4/1
f 2/1/1 5/2/1 6/3/1 3/4/1
f 5/1/1 7/2/1 8/3/1 6/4/1
f 7/1/1 9/2/1 10/3/1 8/4/1
f 9/1/1 11/2/1 12/3/1 10/4/1
f 11/1/1 13/2/1 14/3/1 12/4/1
f 13/1/1 15/2/1 16/3/1 14/4/1
f 15/1/1 17/2/1 18/3/1 16/4/1
f 17/1/1 19/2/1 20/3/1 18/4/1
f 19/1/1 21/2/1 22/3/1 20/4/1
f 21/1/1 23/2/1 24/3/1 22/4/1
f 23/1/1 25/2/1 26/3/1 24/4/1
f 25/1/1 27/2/1 28/3/1 26/4/1
f 27/1/1 29/2/1 30/3/1 28/4/1
f 29/1/1 31/2/1 32/3/1 30/4/1
f 31/1/1 33/2/1 34/3/1 32/4/1
f 33/1/1 35/2/1 36/3/1 34/4/1
f 35/1/1 37/2/1 38/3/1 36/4/1
f 37/1/1 39/2/1 40/3/1 38/4/1
f 39/1/1 41/2/1 42/3/1 40/4/1
f 41/1/1 43/2/1 44/3/1 42/4/1
f 43/1/1 45/2/1 46/3/1 44/4/1
f 45/1/1 47/2/1 48/3/1 46/4/1
f 47/1/1 49/2/1 50/3/1 48/4/1
f 49/1/1 51/2/1 52/3/1 50/4/1
f 51/1/1 53/2/1 54/3/1 52/4/1
f 53/1/1 55/2/1 56/3/1 54/4/1
f 55/1/1 57/2/1 58/3/1 56/4/1
f 57/1/1 59/2/1 60/3/1 58/4/1
f 59/1/1 61/2/1 62/3/1 60/4/1
f 61/1/1 63/2/1 64/3/1 62/4/1
f 63/1/1 65/2/1 66/3/1 64/4/1
f 65/1/1 67/2/1 68/3/1 66/4/1
f 67/1/1 69/2/1 70/3/1 68/4/1
f 71/1/1 72/2/1 2/3/1 1/4/1
f 72/1/1 73/2/1 5/3/1 2/4/1
f 73/1/1 74/2/1 7/3/1 5/4/1
f 74/1/1 75/2/1 9/3/1 7/4/1
f 75/1/1 76/2/1 11/3/1 9/4/1
f 76/1/1 77/2/1 13/3/1 11/4/1
f 77/1/1 78/2/1 15/3/1 13/4/1
f 78/1/1 79/2/1 17/3/1 15/4/1
f 79/1/1 80/2/1 19/3/1 17/4/1
f 80/1/1 81/2/1 21/3/1 19/4/1
f 81/1/1 82/2/1 23/3/1 21/4/1
f 82/1/1 83/2/1 25/3/1 23/4/1
f 83/1/1 84/2/1 27/3/1 25/4/1
f 84/1/1 85/2/1 29/3/1 27/4/1
f 85/1/1 86/2/1 31/3/1 29/4/1
f 86/1/1 87/2/1 33/3/1 31/4/1
f 87/1/1 88/2/1 35/3/1 33/4/1
f 88/1/1 89/2/1 37/3/1 35/4/1
f 89/1/1 90/2/1 39/3/1 37/4/1
f 90/1/1 91/2/1 41/3/1 39/4/1
f 91/1/1 92/2/1 43/3/1 41/4/1
f 92/1/1 93/2/1 45/3/1 43/4/1
f 93/1/1 94/2/1 47/3/1 45/4/1
f 94/1/1 95/2/1 49/3/1 47/4/1
f 95/1/1 96/2/1 51/3/1 49/4/1
f 96/1/1 97/2/1 53/3/1 51/4/1
f 97/1/1 98/2/1 55/3/1 53/4/1
f 98/1/1 99/2/1 57/3/1 55/4/1
f 99/1/1 100/2/1 59/3/1 57/4/1
f 100/1/1 101/2/1 61/3/1 59/4/1
f 101/1/1 102/2/1 63/3/1 61/4/1
f 102/1/1 103/2/1 65/3/1 63/4/1
f 103/1/1 104/2/1 67/3/1 65/4/1
f 104/1/1 105/2/1 69/3/1 67/4/1
f 106/1/1 107/2/1 72/3/1 71/4/1
f 107/1/1 108/2/1 73/3/1 72/4/1
f 108/1/1 109/2/1 74/3/1 73/4/1
f 109/1/1 110/2/1 75/3/1 74/4/1
f 110/1/1 111/2/1 76/3/1 75/4/1
f 111/1/1 112/2/1 77/3/1 76/4/1
f 112/1/1 113/2/1 78/3/1 77/4/1
f 113/1/1 114/2/1 79/3/1 78/4/1
f 114/1/1 115/2/1 80/3/1 79/4/1
f 115/1/1 116/2/1 81/3/1 80/4/1
f 116/1/1 117/2/1 82/3/1 81/4/1
f 117/1/1 118/2/1 83/3/1 82/4/1
f 118/1/1 119/2/1 84/3/1 83/4/1
f 119/1/1 120/2/1 85/3/1 84/4/1
f 120/1/1 121/2/1 86/3/1 85/4/1
f 121/1/1 122/2/1 87/3/1 86/4/1
f 122/1/1 123/2/1 88/3/1 87/4/1
f 123/1/1 124/2/1 89/3/1 88/4/1
f 124/1/1 125/2/1 90/3/1 89/4/1
f 125/1/1 126/2/1 91/3/1 90/4/1
f 126/1/1 127/2/1 92/3/1 91/4/1
f 127/1/1 128/2/1 93/3/1 92/4/1
f 128/1/1 129/2/1 94/3/1 93/4/1
f 129/1/1 130/2/1 95/3/1 94/4/1
f 130/1/1 131/2/1 96/3/1 95/4/1
f 131/1/1 132/2/1 97/3/1 96/4/1
f 132/1/1 133/2/1 98/3/1 97/4/1
f 133/1/1 134/2/1 99/3/1 98/4/1
f 134/1/1 135/2/1 100/3/1 99/4/1
f 135/1/1 136/2/1 101/3/1 100/4/1
f 136/1/1 137/2/1 102/3/1 101/4/1
f 137/1/1 138/2/1 103/3/1 102/4/1
f 138/1/1 139/2/1 104/3/1 103/4/1
f 139/1/1 140/2/1 105/3/1 104/4/1
f 141/1/1 142/2/1 107/3/1 106/4/1
f 142/1/1 143/2/1 108/3/1 107/4/1
f 143/1/1 144/2/1 109/3/1 108/4/1
f 144/1/1 145/2/1 110/3/1 109/4/1
f 145/1/1 146/2/1 111/3/1 110/4/1
f 146/1/1 147/2/1 112/3/1 111/4/1
f 147/1/1 148/2/1 113/3/1 112/4/1
f 148/1/1 149/2/1 114/3/1 113/4/1
f 149/1/1 150/2/1 115/3/1 114/4/1
f 150/1/1 151/2/1 116/3/1 115/4/1
f 151/1/1 152/2/1 117/3/1 116/4/1
f 152/1/1 153/2/1 118/3/1 117/4/1
f 153/1/1 154/2/1 119/3/1 118/4/1
f 154/1/1 155/2/1 120/3/1 119/4/1
f 155/1/1 156/2/1 121/3/1 120/4/1
f 156/1/1 157/2/1 122/3/1 121/4/1
f 157/1/1 158/2/1 123/3/1 122/4/1
f 158/1/1 159/2/1 124/3/1 123/4/1
f 159/1/1 160/2/1 125/3/1 124/4/1
f 160/1/1 161/2/1 126/3/1 125/4/1
f 161/1/1 162/2/1 127/3/1 126/4/1
f 162/1/1 163/2/1 128/3/1 127/4/1
f 163/1/1 164/2/1 129/3/1 128/4/1
f 164/1/1 165/2/1 130/3/1 129/4/1
f 165/1/1 166/2/1 131/3/1 130/4/1
f 166/1/1 167/2/1 132/3/1 131/4/1
f 167/1/1 168/2/1 133/3/1 132/4/1
f 168/1/1 169/2/1 134/3/1 133/4/1
f 169/1/1 170/2/1 135/3/1 134/4/1
f 170/1/1 171/2/1 136/3/1 135/4/1
f 171/1/1 172/2/1 137/3/1 136/4/1
f 172/1/1 173/2/1 138/3/1 137/4/1
f 173/1/1 174/2/1 139/3/1 138/4/1
f 174/1/1 175/2/1 140/3/1 139/4/1
f 176/1/1 177/2/1 142/3/1 141/4/1
f 177/1/1 178/2/1 143/3/1 142/4/1
f 178/1/1 179/2/1 144/3/1 143/4/1
f 179/1/1 180/2/1 145/3/1 144/4/1
f 180/1/1 181/2/1 146/3/1 145/4/1
f 181/1/1 182/2/1 147/3/1 146/4/1
f 182/1/1 183/2/1 148/3/1 147/4/1
f 183/1/1 184/2/1 149/3/1 148/4/1
f 184/1/1 185/2/1 150/3/1 149/4/1
f 185/1/1 186/2/1 151/3/1 150/4/1
f 186/1/1 187/2/1 152/3/1 151/4/1
f 187/1/1 188/2/1 153/3/1 152/4/1
f 188/1/1 189/2/1 154/3/1 153/4/1
f 189/1/1 190/2/1 155/3/1 154/4/1
f 190/1/1 191/2/1 156/3/1 155/4/1
f 191/1/1 192/2/1 157/3/1 156/4/1
f 192/1/1 193/2/1 158/3/1 157/4/1
f 193/1/1 194/2/1 159/3/1 158/4/1
f 194/1/1 195/2/1 160/3/1 159/4/1
f 195/1/1 196/2/1 161/3/1 160/4/1
f 196/1/1 197/2/1 162/3/1 161/4/1
f 197/1/1 198/2/1 163/3/1 162/4/1
f 198/1/1 199/2/1 164/3/1 163/4/1
f 199/1/1 200/2/1 165/3/1 164/4/1
f 200/1/1 201/2/1 166/3/1 165/4/1
f 201/1/1 202/2/1 167/3/1 166/4/1
f 202/1/1 203/2/1 168/3/1 167/4/1
f 203/1/1 204/2/1 169/3/1 168/4/1
f 204/1/1 205/2/1 170/3/1 169/4/1
f 205/1/1 206/2/1 171/3/1 170/4/1
f 206/1/1 207/2/1 172/3/1 171/4/1
f 207/1/1 208/2/1 173/3/1 172/4/1
f 208/1/1 209/2/1 174/3/1 173/4/1
f 209/1/1 210/2/1 175/3/1 174/4/1
f 211/1/1 212/2/1 177/3/1 176/4/1
f 212/1/1 213/2/1 178/3/1 177/4/1
f 213/1/1 214/2/1 179/3/1 178/4/1
f 214/1/1 215/2/1 180/3/1 179/4/1
f 215/1/1 216/2/1 181/3/1 180/4/1
f 216/1/1 217/2/1 182/3/1 181/4/1
f 217/1/1 218/2/1 183/3/1 182/4/1
f 218/1/1 219/2/1 184/3/1 183/4/1
f 219/1/1 220/2/1 185/3/1 184/4/1
f 220/1/1 221/2/1 186/3/1 185/4/1
f 221/1/1 222/2/1 187/3/1 186/4/1
f 222/1/1 223/2/1 188/3/1 187/4/1
f 223/1/1 224/2/1 189/3/1 188/4/1
f 224/1/1 225/2/1 190/3/1 189/4/1
f 225/1/1 226/2/1 191/3/1 190/4/1
f 226/1/1 227/2/1 192/3/1 191/4/1
f 227/1/1 228/2/1 193/3/1 192/4/1
f 228/1/1 229/2/1 194/3/1 193/4/1
f 229/1/1 230/2/1 195/3/1 194/4/1
f 230/1/1 231/2/1 196/3/1 195/4/1
f 231/1/1 232/2/1 197/3/1 196/4/1
f 232/1/1 233/2/1 198/3/1 197/4/1
f 233/1/1 234/2/1 199/3/1 198/4/1
f 234/1/1 235/2/1 200/3/1 199/4/1
f 235/1/1 236/2/1 201/3/1 200/4/1
f 236/1/1 237/2/1 202/3/1 201/4/1
f 237/1/1 238/2/1 203/3/1 202/4/1
f 238/1/1 239/2/1 204/3/1 203/4/1
f 239/1/1 240/2/1 205/3/1 204/4/1
f 240/1/1 241/2/1 206/3/1 205/4/1
f 241/1/1 242/2/1 207/3/1 206/4/1
f 242/1/1 243/2/1 208/3/1 207/4/1
f 243/1/1 244/2/1 209/3/1 208/4/1
f 244/1/1 245/2/1 210/3/1 209/4/1
f 246/1/1 247/2/1 212/3/1 211/4/1
f 247/1/1 248/2/1 213/3/1 212/4/1
f 248/1/1 249/2/1 214/3/1 213/4/1
f 249/1/1 250/2/1 215/3/1 214/4/1
f 250/1/1 251/2/1 216/3/1 215/4/1
f 251/1/1 252/2/1 217/3/1 216/4/1
f 252/1/1 253/2/1 218/3/1 217/4/1
f 253/1/1 254/2/1 219/3/1 218/4/1
f 254/1/1 255/2/1 220/3/1 219/4/1
f 255/1/1 256/2/1 221/3/1 220/4/1
f 256/1/1 257/2/1 222/3/1 221/4/1
f 257/1/1 258/2/1 223/3/1 222/4/1
f 258/1/1 259/2/1 224/3/1 223/4/1
f 259/1/1 260/2/1 225/3/1 224/4/1
f 260/1/1 261/2/1 226/3/1 225/4/1
f 261/1/1 262/2/1 227/3/1 226/4/1
f 262/1/1 263/2/1 228/3/1 227/4/1
f 263/1/1 264/2/1 229/3/1 228/4/1
f 264/1/1 265/2/1 230/3/1 229/4/1
f 265/1/1 266/2/1 231/3/1 230/4/1
f 266/1/1 267/2/1 232/3/1 231/4/1
f 267/1/1 268/2/1 233/3/1 232/4/1
f 268/1/1 269/2/1 234/3/1 233/4/1
f 269/1/1 270/2/1 235/3/1 234/4/1
f 270/1/1 271/2/1 236/3/1 235/4/1
f 271/1/1 272/2/1 237/3/1 236/4/1
f 272/1/1 273/2/1 238/3/1 237/4/1
f 273/1/1 274/2/1 239/3/1 238/4/1
f 274/1/1 275/2/1 240/3/1 239/4/1
f 275/1/1 276/2/1 241/3/1 240/4/1
f 276/1/1 277/2/1 242/3/1 241/4/1
f 277/1/1 278/2/1 243/3/1 242/4/1
f 278/1/1 279/2/1 244/3/1 243/4/1
f 279/1/1 280/2/1 245/3/1 244/4/1
f 281/1/1 282/2/1 247/3/1 246/4/1
f 282/1/1 283/2/1 248/3/1 247/4/1
f 283/1/1 284/2/1 249/3/1 248/4/1
f 284/1/1 285/2/1 250/3/1 249/4/1
f 285/1/1 286/2/1 251/3/1 250/4/1
f 286/1/1 287/2/1 252/3/1 251/4/1
f 287/1/1 288/2/1 253/3/1 252/4/1
f 288/1/1 289/2/1 254/3/1 253/4/1
f 289/1/1 290/2/1 255/3/1 254/4/1
f 290/1/1 291/2/1 256/3/1 255/4/1
f 291/1/1 292/2/1 257/3/1 256/4/1
f 292/1/1 293/2/1 258/3/1 257/4/1
f 293/1/1 294/2/1 259/3/1 258/4/1
f 294/1/1 295/2/1 260/3/1 259/4/1
f 295/1/1 296/2/1 261/3/1 260/4/1
f 296/1/1 297/2/1 262/3/1 261/4/1
f 297/1/1 298/2/1 263/3/1 262/4/1
f 298/1/1 299/2/1 264/3/1 263/4/1
f 299/1/1 300/2/1 265/3/1 264/4/1
f 300/1/1 301/2/1 266/3/1 265/4/1
f 301/1/1 302/2/1 267/3/1 266/4/1
f 302/1/1 303/2/1 268/3/1 267/4/1
f 303/1/1 304/2/1 269/3/1 268/4/1
f 304/1/1 305/2/1 270/3/1 269/4/1
f 305/1/1 306/2/1 271/3/1 270/4/1
f 306/1/1 307/2/1 272/3/1 271/4/1
f 307/1/1 308/2/1 273/3/1 272/4/1
f 308/1/1 309/2/1 274/3/1 273/4/1
f 309/1/1 310/2/1 275/3/1 274/4/1
f 310/1/1 311/2/1 276/3/1 275/4/1
f 311/1/1 312/2/1 277/3/1 276/4/1
f 312/1/1 313/2/1 278/3/1 277/4/1
f 313/1/1 314/2/1 279/3/1 278/4/1
f 314/1/1 315/2/1 280/3/1 279/4/1
f 316/1/1 317/2/1 282/3/1 281/4/1
f 317/1/1 318/2/1 283/3/1 282/4/1
f 318/1/1 319/2/1 284/3/1 283/4/1
f 319/1/1 320/2/1 285/3/1 284/4/1
f 320/1/1 321/2/1 286/3/1 285/4/1
f 321/1/1 322/2/1 287/3/1 286/4/1
f 322/1/1 323/2/1 288/3/1 287/4/1
f 323/1/1 324/2/1 289/3/1 288/4/1
f 324/1/1 325/2/1 290/3/1 289/4/1
f 325/1/1 326/2/1 291/3/1 290/4/1
f 326/1/1 327/2/1 292/3/1 291/4/1
f 327/1/1 328/2/1 293/3/1 292/4/1
f 328/1/1 329/2/1 294/3/1 293/4/1
f 329/1/1 330/2/1 295/3/1 294/4/1
f 330/1/1 331/2/1 296/3/1 295/4/1
f 331/1/1 332/2/1 297/3/1 296/4/1
f 332/1/1 333/2/1 298/3/1 297/4/1
f 333/1/1 334/2/1 299/3/1 298/4/1
f 334/1/1 335/2/1 300/3/1 299/4/1
f 335/1/1 336/2/1 301/3/1 300/4/1
f 336/1/1 337/2/1 302/3/1 301/4/1
f 337/1/1 338/2/1 303/3/1 302/4/1
f 338/1/1 339/2/1 304/3/1 303/4/1
f 339/1/1 340/2/1 305/3/1 304/4/1
f 340/1/1 341/2/1 306/3/1 305/4/1
f 341/1/1 342/2/1 307/3/1 306/4/1
f 342/1/1 343/2/1 308/3/1 307/4/1
f 343/1/1 344/2/1 309/3/1 308/4/1
f 344/1/1 345/2/1 310/3/1 309/4/1
f 345/1/1 346/2/1 311/3/1 310/4/1
f 346/1/1 347/2/1 312/3/1 311/4/1
f 347/1/1 348/2/1 313/3/1 312/4/1
f 348/1/1 349/2/1 314/3/1 313/4/1
f 349/1/1 350/2/1 315/3/1 314/4/1
f 351/1/1 352/2/1 317/3/1 316/4/1
f 352/1/1 353/2/1 318/3/1 317/4/1
f 353/1/1 354/2/1 319/3/1 318/4/1
f 354/1/1 355/2/1 320/3/1 319/4/1
f 355/1/1 356/2/1 321/3/1 320/4/1
f 356/1/1 357/2/1 322/3/1 321/4/1
f 357/1/1 358/2/1 323/3/1 322/4/1
f 358/1/1 359/2/1 324/3/1 323/4/1
f 359/1/1 360/2/1 325/3/1 324/4/1
f 360/1/1 361/2/1 326/3/1 325/4/1
f 361/1/1 362/2/1 327/3/1 326/4/1
f 362/1/1 363/2/1 328/3/1 327/4/1
f 363/1/1 364/2/1 329/3/1 328/4/1
f 364/1/1 365/2/1 330/3/1 329/4/1
f 365/1/1 366/2/1 331/3/1 330/4/1
f 366/1/1 367/2/1 332/3/1 331/4/1
f 367/1/1 368/2/1 333/3/1 332/4/1
f 368/1/1 369/2/1 334/3/1 333/4/1
f 369/1/1 370/2/1 335/3/1 334/4/1
f 370/1/1 371/2/1 336/3/1 335/4/1
f 371/1/1 372/2/1 337/3/1 336/4/1
f 372/1/1 373/2/1 338/3/1 337/4/1
f 373/1/1 374/2/1 339/3/1 338/4/1
f 374/1/1 375/2/1 340/3/1 339/4/1
f 375/1/1 376/2/1 341/3/1 340/4/1
f 376/1/1 377/2/1 342/3/1 341/4/1
f 377/1/1 378/2/1 343/3/1 342/4/1
f 378/1/1 379/2/1 344/3/1 343/4/1
f 379/1/1 380/2/1 345/3/1 344/4/1
f 380/1/1 381/2/1 346/3/1 345/4/1
f 381/1/1 382/2/1 347/3/1 346/4/1
f 382/1/1 383/2/1 348/3/1 347/4/1
f 383/1/1 384/2/1 349/3/1 348/4/1
f 384/1/1 385/2/1 350/3/1 349/4/1
f 386/1/1 387/2/1 352/3/1 351/4/1
f 387/1/1 388/2/1 353/3/1 352/4/1
f 388/1/1 389/2/1 354/3/1 353/4/1
f 389/1/1 390/2/1 355/3/1 354/4/1
f 390/1/1 391/2/1 356/3/1 355/4/1
f 391/1/1 392/2/1 357/3/1 356/4/1
f 392/1/1 393/2/1 358/3/1 357/4/1
f 393/1/1 394/2/1 359/3/1 358/4/1
f 394/1/1 395/2/1 360/3/1 359/4/1
f 395/1/1 396/2/1 361/3/1 360/4/1
f 396/1/1 397/2/1 362/3/1 361/4/1
f 397/1/1 398/2/1 363/3/1 362/4/1
f 398/1/1 399/2/1 364/3/1 363/4/1
f 399/1/1 400/2/1 365/3/1 364/4/1
f 400/1/1 401/2/1 366/3/1 365/4/1
f 401/1/1 402/2/1 367/3/1 366/4/1
f 402/1/1 403/2/1 368/3/1 367/4/1
f 403/1/1 404/2/1 369/3/1 368/4/1
f 404/1/1 405/2/1 370/3/1 369/4/1
f 405/1/1 406/2/1 371/3/1 370/4/1
f 406/1/1 407/2/1 372/3/1 371/4/1
f 407/1/1 408/2/1 373/3/1 372/4/1
f 408/1/1 409/2/1 374/3/1 373/4/1
f 409/1/1 410/2/1 375/3/1 374/4/1
f 410/1/1 411/2/1 376/3/1 375/4/1
f 411/1/1 412/2/1 377/3/1 376/4/1
f 412/1/1 413/2/1 378/3/1 377/4/1
f 413/1/1 414/2/1 379/3/1 378/4/1
f 414/1/1 415/2/1 380/3/1 379/4/1
f 415/1/1 416/2/1 381/3/1 380/4/1
f 416/1/1 417/2/1 382/3/1 381/4/1
f 417/1/1 418/2/1 383/3/1 382/4/1
f 418/1/1 419/2/1 384/3/1 383/4/1
f 419/1/1 420/2/1 385/3/1 384/4/1
f 421/1/1 422/2/1 387/3/1 386/4/1
f 422/1/1 423/2/1 388/3/1 387/4/1
f 423/1/1 424/2/1 389/3/1 388/4/1
f 424/1/1 425/2/1 390/3/1 389/4/1
f 425/1/1 426/2/1 391/3/1 390/4/1
f 426/1/1 427/2/1 392/3/1 391/4/1
f 427/1/1 428/2/1 393/3/1 392/4/1
f 428/1/1 429/2/1 394/3/1 393/4/1
f 429/1/1 430/2/1 395/3/1 394/4/1
f 430/1/1 431/2/1 396/3/1 395/4/1
f 431/1/1 432/2/1 397/3/1 396/4/1
f 432/1/1 433/2/1 398/3/1 397/4/1
f 433/1/1 434/2/1 399/3/1 398/4/1
f 434/1/1 435/2/1 400/3/1 399/4/1
f 435/1/1 436/2/1 401/3/1 400/4/1
f 436/1/1 437/2/1 402/3/1 401/4/1
f 437/1/1 438/2/1 403/3/1 402/4/1
f 438/1/1 439/2/1 404/3/1 403/4/1
f 439/1/1 440/2/1 405/3/1 404/4/1
f 440/1/1 441/2/1 406/3/1 405/4/1
f 441/1/1 442/2/1 407/3/1 406/4/1
f 442/1/1 443/2/1 408/3/1 407/4/1
f 443/1/1 444/2/1 409/3/1 408/4/1
f 444/1/1 445/2/1 410/3/1 409/4/1
f 445/1/1 446/2/1 411/3/1 410/4/1
f 446/1/1 447/2/1 412/3/1 411/4/1
f 447/1/1 448/2/1 413/3/1 412/4/1
f 448/1/1 449/2/1 414/3/1 413/4/1
f 449/1/1 450/2/1 415/3/1 414/4/1
f 450/1/1 451/2/1 416/3/1 415/4/1
f 451/1/1 452/2/1 417/3/1 416/4/1
f 452/1/1 453/2/1 418/3/1 417/4/1
f 453/1/1 454/2/1 419/3/1 418/4/1
f 454/1/1 455/2/1 420/3/1 419/4/1
f 456/1/1 457/2/1 422/3/1 421/4/1
f 457/1/1 458/2/1 423/3/1 422/4/1
f 458/1/1 459/2/1 424/3/1 423/4/1
f 459/1/1 460/2/1 425/3/1 424/4/1
f 460/1/1 461/2/1 426/3/1 425/4/1
f 461/1/1 462/2/1 427/3/1 426/4/1
f 462/1/1 463/2/1 428/3/1 427/4/1
f 463/1/1 464/2/1 429/3/1 428/4/1
f 464/1/1 465/2/1 430/3/1 429/4/1
f 465/1/1 466/2/1 431/3/1 430/4/1
f 466/1/1 467/2/1 432/3/1 431/4/1
f 467/1/1 468/2/1 433/3/1 432/4/1
f 468/1/1 469/2/1 434/3/1 433/4/1
f 469/1/1 470/2/1 435/3/1 434/4/1
f 470/1/1 471/2/1 436/3/1 435/4/1
f 471/1/1 472/2/1 437/3/1 436/4/1
f 472/1/1 473/2/1 438/3/1 437/4/1
f 473/1/1 474/2/1 439/3/1 438/4/1
f 474/1/1 475/2/1 440/3/1 439/4/1
f 475/1/1 476/2/1 441/3/1 440/4/1
f 476/1/1 477/2/1 442/3/1 441/4/1
f 477/1/1 478/2/1 443/3/1 442/4/1
f 478/1/1 479/2/1 444/3/1 443/4/1
f 479/1/1 480/2/1 445/3/1 444/4/1
f 480/1/1 481/2/1 446/3/1 445/4/1
f 481/1/1 482/2/1 447/3/1 446/4/1
f 482/1/1 483/2/1 448/3/1 447/4/1
f 483/1/1 484/2/1 449/3/1 448/4/1
f 484/1/1 485/2/1 450/3/1 449/4/1
f 485/1/1 486/2/1 451/3/1 450/4/1
f 486/1/1 487/2/1 452/3/1 451/4/1
f 487/1/1 488/2/1 453/3/1 452/4/1
f 488/1/1 489/2/1 454/3/1 453/4/1
f 489/1/1 490/2/1 455/3/1 454/4/1
f 491/1/1 492/2/1 457/3/1 456/4/1
f 492/1/1 493/2/1 458/3/1 457/4/1
f 493/1/1 494/2/1 459/3/1 458/4/1
f 494/1/1 495/2/1 460/3/1 459/4/1
f 495/1/1 496/2/1 461/3/1 460/4/1
f 496/1/1 497/2/1 462/3/1 461/4/1
f 497/1/1 498/2/1 463/3/1 462/4/1
f 498/1/1 499/2/1 464/3/1 463/4/1
f 499/1/1 500/2/1 465/3/1 464/4/1
f 500/1/1 501/2/1 466/3/1 465/4/1
f 501/1/1 502/2/1 467/3/1 466/4/1
f 502/1/1 503/2/1 468/3/1 467/4/1
f 503/1/1 504/2/1 469/3/1 468/4/1
f 504/1/1 505/2/1 470/3/1 469/4/1
f 505/1/1 506/2/1 471/3/1 470/4/1
f 506/1/1 507/2/1 472/3/1 471/4/1
f 507/1/1 508/2/1 473/3/1 472/4/1
f 508/1/1 509/2/1 474/3/1 473/4/1
f 509/1/1 510/2/1 475/3/1 474/4/1
f 510/1/1 511/2/1 476/3/1 475/4/1
f 511/1/1 512/2/1 477/3/1 476/4/1
f 512/1/1 513/2/1 478/3/1 477/4/1
f 513/1/1 514/2/1 479/3/1 478/4/1
f 514/1/1 515/2/1 480/3/1 479/4/1
f 515/1/1 516/2/1 481/3/1 480/4/1
f 516/1/1 517/2/1 482/3/1 481/4/1
f 517/1/1 518/2/1 483/3/1 482/4/1
f 518/1/1 519/2/1 484/3/1 483/4/1
f 519/1/1 520/2/1 485/3/1 484/4/1
f 520/1/1 521/2/1 486/3/1 485/4/1
f 521/1/1 522/2/1 487/3/1 486/4/1
f 522/1/1 523/2/1 488/3/1 487/4/1
f 523/1/1 524/2/1 489/3/1 488/4/1
f 524/1/1 525/2/1 490/3/1 489/4/1
f 526/1/1 527/2/1 492/3/1 491/4/1
f 527/1/1 528/2/1 493/3/1 492/4/1
f 528/1/1 529/2/1 494/3/1 493/4/1
f 529/1/1 530/2/1 495/3/1 494/4/1
f 530/1/1 531/2/1 496/3/1 495/4/1
f 531/1/1 532/2/1 497/3/1 496/4/1
f 532/1/1 533/2/1 498/3/1 497/4/1
f 533/1/1 534/2/1 499/3/1 498/4/1
f 534/1/1 535/2/1 500/3/1 499/4/1
f 535/1/1 536/2/1 501/3/1 500/4/1
f 536/1/1 537/2/1 502/3/1 501/4/1
f 537/1/1 538/2/1 503/3/1 502/4/1
f 538/1/1 539/2/1 504/3/1 503/4/1
f 539/1/1 540/2/1 505/3/1 504/4/1
f 540/1/1 541/2/1 506/3/1 505/4/1
f 541/1/1 542/2/1 507/3/1 506/4/1
f 542/1/1 543/2/1 508/3/1 507/4/1
f 543/1/1 544/2/1 509/3/1 508/4/1
f 544/1/1 545/2/1 510/3/1 509/4/1
f 545/1/1 546/2/1 511/3/1 510/4/1
f 546/1/1 547/2/1 512/3/1 511/4/1
f 547/1/1 548/2/1 513/3/1 512/4/1
f 548/1/1 549/2/1 514/3/1 513/4/1
f 549/1/1 550/2/1 515/3/1 514/4/1
f 550/1/1 551/2/1 516/3/1 515/4/1
f 551/1/1 552/2/1 517/3/1 516/4/1
f 552/1/1 553/2/1 518/3/1 517/4/1
f 553/1/1 554/2/1 519/3/1 518/4/1
f 554/1/1 555/2/1 520/3/1 519/4/1
f 555/1/1 556/2/1 521/3/1 520/4/1
f 556/1/1 557/2/1 522/3/1 521/4/1
f 557/1/1 558/2/1 523/3/1 522/4/1
f 558/1/1 559/2/1 524/3/1 523/4/1
f 559/1/1 560/2/1 525/3/1 524/4/1
f 561/1/1 562/2/1 527/3/1 526/4/1
f 562/1/1 563/2/1 528/3/1 527/4/1
f 563/1/1 564/2/1 529/3/1 528/4/1
f 564/1/1 565/2/1 530/3/1 529/4/1
f 565/1/1 566/2/1 531/3/1 530/4/1
f 566/1/1 567/2/1 532/3/1 531/4/1
f 567/1/1 568/2/1 533/3/1 532/4/1
f 568/1/1 569/2/1 534/3/1 533/4/1
f 569/1/1 570/2/1 535/3/1 534/4/1
f 570/1/1 571/2/1 536/3/1 535/4/1
f 571/1/1 572/2/1 537/3/1 536/4/1
f 572/1/1 573/2/1 538/3/1 537/4/1
f 573/1/1 574/2/1 539/3/1 538/4/1
f 574/1/1 575/2/1 540/3/1 539/4/1
f 575/1/1 576/2/1 541/3/1 540/4/1
f 576/1/1 577/2/1 542/3/1 541/4/1
f 577/1/1 578/2/1 543/3/1 542/4/1
f 578/1/1 579/2/1 544/3/1 543/4/1
f 579/1/1 580/2/1 545/3/1 544/4/1
f 580/1/1 581/2/1 546/3/1 545/4/1
f 581/1/1 582/2/1 547/3/1 546/4/1
f 582/1/1 583/2/1 548/3/1 547/4/1
f 583/1/1 584/2/1 549/3/1 548/4/1
f 584/1/1 585/2/1 550/3/1 549/4/1
f 585/1/1 586/2/1 551/3/1 550/4/1
f 586/1/1 587/2/1 552/3/1 551/4/1
f 587/1/1 588/2/1 553/3/1 552/4/1
f 588/1/1 589/2/1 554/3/1 553/4/1
f 589/1/1 590/2/1 555/3/1 554/4/1
f 590/1/1 591/2/1 556/3/1 555/4/1
f 591/1/1 592/2/1 557/3/1 556/4/1
f 592/1/1 593/2/1 558/3/1 557/4/1
f 593/1/1 594/2/1 559/3/1 558/4/1
f 594/1/1 595/2/1 560/3/1 559/4/1
f 596/1/1 597/2/1 562/3/1 561/4/1
f 597/1/1 598/2/1 563/3/1 562/4/1
f 598/1/1 599/2/1 564/3/1 563/4/1
f 599/1/1 600/2/1 565/3/1 564/4/1
f 600/1/1 601/2/1 566/3/1 565/4/1
f 601/1/1 602/2/1 567/3/1 566/4/1
f 602/1/1 603/2/1 568/3/1 567/4/1
f 603/1/1 604/2/1 569/3/1 568/4/1
f 604/1/1 605/2/1 570/3/1 569/4/1
f 605/1/1 606/2/1 571/3/1 570/4/1
f 606/1/1 607/2/1 572/3/1 571/4/1
f 607/1/1 608/2/1 573/3/1 572/4/1
f 608/1/1 609/2/1 574/3/1 573/4/1
f 609/1/1 610/2/1 575/3/1 574/4/1
f 610/1/1 611/2/1 576/3/1 575/4/1
f 611/1/1 612/2/1 577/3/1 576/4/1
f 612/1/1 613/2/1 578/3/1 577/4/1
f 613/1/1 614/2/1 579/3/1 578/4/1
f 614/1/1 615/2/1 580/3/1 579/4/1
f 615/1/1 616/2/1 581/3/1 580/4/1
f 616/1/1 617/2/1 582/3/1 581/4/1
f 617/1/1 618/2/1 583/3/1 582/4/1
f 618/1/1 619/2/1 584/3/1 583/4/1
f 619/1/1 620/2/1 585/3/1 584/4/1
f 620/1/1 621/2/1 586/3/1 585/4/1
f 621/1/1 622/2/1 587/3/1 586/4/1
f 622/1/1 623/2/1 588/3/1 587/4/1
f 623/1/1 624/2/1 589/3/1 588/4/1
f 624/1/1 625/2/1 590/3/1 589/4/1
f 625/1/1 626/2/1 591/3/1 590/4/1
f 626/1/1 627/2/1 592/3/1 591/4/1
f 627/1/1 628/2/1 593/3/1 592/4/1
f 628/1/1 629/2/1 594/3/1 593/4/1
f 629/1/1 630/2/1 595/3/1 594/4/1
f 631/1/1 632/2/1 597/3/1 596/4/1
f 632/1/1 633/2/1 598/3/1 597/4/1
f 633/1/1 634/2/1 599/3/1 598/4/1
f 634/1/1 635/2/1 600/3/1 599/4/1
f 635/1/1 636/2/1 601/3/1 600/4/1
f 636/1/1 637/2/1 602/3/1 601/4/1
f 637/1/1 638/2/1 603/3/1 602/4/1
f 638/1/1 639/2/1 604/3/1 603/4/1
f 639/1/1 640/2/1 605/3/1 604/4/1
f 640/1/1 641/2/1 606/3/1 605/4/1
f 641/1/1 642/2/1 607/3/1 606/4/1
f 642/1/1 643/2/1 608/3/1 607/4/1
f 643/1/1 644/2/1 609/3/1 608/4/1
f 644/1/1 645/2/1 610/3/1 609/4/1
f 645/1/1 646/2/1 611/3/1 610/4/1
f 646/1/1 647/2/1 612/3/1 611/4/1
f 647/1/1 648/2/1 613/3/1 612/4/1
f 648/1/1 649/2/1 614/3/1 613/4/1
f 649/1/1 650/2/1 615/3/1 614/4/1
f 650/1/1 651/2/1 616/3/1 615/4/1
f 651/1/1 652/2/1 617/3/1 616/4/1
f 652/1/1 653/2/1 618/3/1 617/4/1
f 653/1/1 654/2/1 619/3/1 618/4/1
f 654/1/1 655/2/1 620/3/1 619/4/1
f 655/1/1 656/2/1 621/3/1 620/4/1
f 656/1/1 657/2/1 622/3/1 621/4/1
f 657/1/1 658/2/1 623/3/1 622/4/1
f 658/1/1 659/2/1 624/3/1 623/4/1
f 659/1/1 660/2/1 625/3/1 624/4/1
f 660/1/1 661/2/1 626/3/1 625/4/1
f 661/1/1 662/2/1 627/3/1 626/4/1
f 662/1/1 663/2/1 628/3/1 627/4/1
f 663/1/1 664/2/1 629/3/1 628/4/1
f 664/1/1 665/2/1 630/3/1 629/4/1
f 666/1/1 667/2/1 632/3/1 631/4/1
f 667/1/1 668/2/1 633/3/1 632/4/1
f 668/1/1 669/2/1 634/3/1 633/4/1
f 669/1/1 670/2/1 635/3/1 634/4/1
f 670/1/1 671/2/1 636/3/1 635/4/1
f 671/1/1 672/2/1 637/3/1 636/4/1
f 672/1/1 673/2/1 638/3/1 637/4/1
f 673/1/1 674/2/1 639/3/1 638/4/1
f 674/1/1 675/2/1 640/3/1 639/4/1
f 675/1/1 676/2/1 641/3/1 640/4/1
f 676/1/1 677/2/1 642/3/1 641/4/1
f 677/1/1 678/2/1 643/3/1 642/4/1
f 678/1/1 679/2/1 644/3/1 643/4/1
f 679/1/1 680/2/1 645/3/1 644/4/1
f 680/1/1 681/2/1 646/3/1 645/4/1
f 681/1/1 682/2/1 647/3/1 646/4/1
f 682/1/1 683/2/1 648/3/1 647/4/1
f 683/1/1 684/2/1 649/3/1 648/4/1
f 684/1/1 685/2/1 650/3/1 649/4/1
f 685/1/1 686/2/1 651/3/1 650/4/1
f 686/1/1 687/2/1 652/3/1 651/4/1
f 687/1/1 688/2/1 653/3/1 652/4/1
f 688/1/1 689/2/1 654/3/1 653/4/1
f 689/1/1 690/2/1 655/3/1 654/4/1
f 690/1/1 691/2/1 656/3/1 655/4/1
f 691/1/1 692/2/1 657/3/1 656/4/1
f 692/1/1 693/2/1 658/3/1 657/4/1
f 693/1/1 694/2/1 659/3/1 658/4/1
f 694/1/1 695/2/1 660/3/1 659/4/1
f 695/1/1 696/2/1 661/3/1 660/4/1
f 696/1/1 697/2/1 662/3/1 661/4/1
f 697/1/1 698/2/1 663/3/1 662/4/1
f 698/1/1 699/2/1 664/3/1 663/4/1
f 699/1/1 700/2/1 665/3/1 664/4/1
f 701/1/1 702/2/1 667/3/1 666/4/1
f 702/1/1 703/2/1 668/3/1 667/4/1
f 703/1/1 704/2/1 669/3/1 668/4/1
f 704/1/1 705/2/1 670/3/1 669/4/1
f 705/1/1 706/2/1 671/3/1 670/4/1
f 706/1/1 707/2/1 672/3/1 671/4/1
f 707/1/1 708/2/1 673/3/1 672/4/1
f 708/1/1 709/2/1 674/3/1 673/4/1
f 709/1/1 710/2/1 675/3/1 674/4/1
f 710/1/1 711/2/1 676/3/1 675/4/1
f 711/1/1 712/2/1 677/3/1 676/4/1
f 712/1/1 713/2/1 678/3/1 677/4/1
f 713/1/1 714/2/1 679/3/1 678/4/1
f 714/1/1 715/2/1 680/3/1 679/4/1
f 715/1/1 716/2/1 681/3/1 680/4/1
f 716/1/1 717/2/1 682/3/1 681/4/1
f 717/1/1 718/2/1 683/3/1 682/4/1
f 718/1/1 719/2/1 684/3/1 683/4/1
f 719/1/1 720/2/1 685/3/1 684/4/1
f 720/1/1 721/2/1 686/3/1 685/4/1
f 721/1/1 722/2/1 687/3/1 686/4/1
f 722/1/1 723/2/1 688/3/1 687/4/1
f 723/1/1 724/2/1 689/3/1 688/4/1
f 724/1/1 725/2/1 690/3/1 689/4/1
f 725/1/1 726/2/1 691/3/1 690/4/1
f 726/1/1 727/2/1 692/3/1 691/4/1
f 727/1/1 728/2/1 693/3/1 692/4/1
f 728/1/1 729/2/1 694/3/1 693/4/1
f 729/1/1 730/2/1 695/3/1 694/4/1
f 730/1/1 731/2/1 696/3/1 695/4/1
f 731/1/1 732/2/1 697/3/1 696/4/1
f 732/1/1 733/2/1 698/3/1 697/4/1
f 733/1/1 734/2/1 699/3/1 698/4/1
f 734/1/1 735/2/1 700/3/1 699/4/1
f 736/1/1 737/2/1 702/3/1 701/4/1
f 737/1/1 738/2/1 703/3/1 702/4/1
f 738/1/1 739/2/1 704/3/1 703/4/1
f 739/1/1 740/2/1 705/3/1 704/4/1
f 740/1/1 741/2/1 706/3/1 705/4/1
f 741/1/1 742/2/1 707/3/1 706/4/1
f 742/1/1 743/2/1 708/3/1 707/4/1
f 743/1/1 744/2/1 709/3/1 708/4/1
f 744/1/1 745/2/1 710/3/1 709/4/1
f 745/1/1 746/2/1 711/3/1 710/4/1
f 746/1/1 747/2/1 712/3/1 711/4/1
f 747/1/1 748/2/1 713/3/1 712/4/1
f 748/1/1 749/2/1 714/3/1 713/4/1
f 749/1/1 750/2/1 715/3/1 714/4/1
f 750/1/1 751/2/1 716/3/1 715/4/1
f 751/1/1 752/2/1 717/3/1 716/4/1
f 752/1/1 753/2/1 718/3/1 717/4/1
f 753/1/1 754/2/1 719/3/1 718/4/1
f 754/1/1 755/2/1 720/3/1 719/4/1
f 755/1/1 756/2/1 721/3/1 720/4/1
f 756/1/1 757/2/1 722/3/1 721/4/1
f 757/1/1 758/2/1 723/3/1 722/4/1
f 758/1/1 759/2/1 724/3/1 723/4/1
f 759/1/1 760/2/1 725/3/1 724/4/1
f 760/1/1 761/2/1 726/3/1 725/4/1
f 761/1/1 762/2/1 727/3/1 726/4/1
f 762/1/1 763/2/1 728/3/1 727/4/1
f 763/1/1 764/2/1 729/3/1 728/4/1
f 764/1/1 765/2/1 730/3/1 729/4/1
f 765/1/1 766/2/1 731/3/1 730/4/1
f 766/1/1 767/2/1 732/3/1 731/4/1
f 767/1/1 768/2/1 733/3/1 732/4/1
f 768/1/1 769/2/1 734/3/1 733/4/1
f 769/1/1 770/2/1 735/3/1 734/4/1
f 771/1/1 772/2/1 737/3/1 736/4/1
f 772/1/1 773/2/1 738/3/1 737/4/1
f 773/1/1 774/2/1 739/3/1 738/4/1
f 774/1/1 775/2/1 740/3/1 739/4/1
f 775/1/1 776/2/1 741/3/1 740/4/1
f 776/1/1 777/2/1 742/3/1 741/4/1
f 777/1/1 778/2/1 743/3/1 742/4/1
f 778/1/1 779/2/1 744/3/1 743/4/1
f 779/1/1 780/2/1 745/3/1 744/4/1
f 780/1/1 781/2/1 746/3/1 745/4/1
f 781/1/1 782/2/1 747/3/1 746/4/1
f 782/1/1 783/2/1 748/3/1 747/4/1
f 783/1/1 784/2/1 749/3/1 748/4/1
f 784/1/1 785/2/1 750/3/1 749/4/1
f 785/1/1 786/2/1 751/3/1 750/4/1
f 786/1/1 787/2/1 752/3/1 751/4/1
f 787/1/1 788/2/1 753/3/1 752/4/1
f 788/1/1 789/2/1 754/3/1 753/4/1
f 789/1/1 790/2/1 755/3/1 754/4/1
f 790/1/1 791/2/1 756/3/1 755/4/1
f 791/1/1 792/2/1 757/3/1 756/4/1
f 792/1/1 793/2/1 758/3/1 757/4/1
f 793/1/1 794/2/1 759/3/1 758/4/1
f 794/1/1 795/2/1 760/3/1 759/4/1
f 795/1/1 796/2/1 761/3/1 760/4/1
f 796/1/1 797/2/1 762/3/1 761/4/1
f 797/1/1 798/2/1 763/3/1 762/4/1
f 798/1/1 799/2/1 764/3/1 763/4/1
f 799/1/1 800/2/1 765/3/1 764/4/1
f 800/1/1 801/2/1 766/3/1 765/4/1
f 801/1/1 802/2/1 767/3/1 766/4/1
f 802/1/1 803/2/1 768/3/1 767/4/1
f 803/1/1 804/2/1 769/3/1 768/4/1
f 804/1/1 805/2/1 770/3/1 769/4/1
f 806/1/1 807/2/1 772/3/1 771/4/1
f 807/1/1 808/2/1 773/3/1 772/4/1
f 808/1/1 809/2/1 774/3/1 773/4/1
f 809/1/1 810/2/1 775/3/1 774/4/1
f 810/1/1 811/2/1 776/3/1 775/4/1
f 811/1/1 812/2/1 777/3/1 776/4/1
f 812/1/1 813/2/1 778/3/1 777/4/1
f 813/1/1 814/2/1 779/3/1 778/4/1
f 814/1/1 815/2/1 780/3/1 779/4/1
f 815/1/1 816/2/1 781/3/1 780/4/1
f 816/1/1 817/2/1 782/3/1 781/4/1
f 817/1/1 818/2/1 783/3/1 782/4/1
f 818/1/1 819/2/1 784/3/1 783/4/1
f 819/1/1 820/2/1 785/3/1 784/4/1
f 820/1/1 821/2/1 786/3/1 785/4/1
f 821/1/1 822/2/1 787/3/1 786/4/1
f 822/1/1 823/2/1 788/3/1 787/4/1
f 823/1/1 824/2/1 789/3/1 788/4/1
f 824/1/1 825/2/1 790/3/1 789/4/1
f 825/1/1 826/2/1 791/3/1 790/4/1
f 826/1/1 827/2/1 792/3/1 791/4/1
f 827/1/1 828/2/1 793/3/1 792/4/1
f 828/1/1 829/2/1 794/3/1 793/4/1
f 829/1/1 830/2/1 795/3/1 794/4/1
f 830/1/1 831/2/1 796/3/1 795/4/1
f 831/1/1 832/2/1 797/3/1 796/4/1
f 832/1/1 833/2/1 798/3/1 797/4/1
f 833/1/1 834/2/1 799/3/1 798/4/1
f 834/1/1 835/2/1 800/3/1 799/4/1
f 835/1/1 836/2/1 801/3/1 800/4/1
f 836/1/1 837/2/1 802/3/1 801/4/1
f 837/1/1 838/2/1 803/3/1 802/4/1
f 838/1/1 839/2/1 804/3/1 803/4/1
f 839/1/1 840/2/1 805/3/1 804/4/1
f 841/1/1 842/2/1 807/3/1 806/4/1
f 842/1/1 843/2/1 808/3/1 807/4/1
f 843/1/1 844/2/1 809/3/1 808/4/1
f 844/1/1 845/2/1 810/3/1 809/4/1
f 845/1/1 846/2/1 811/3/1 810/4/1
f 846/1/1 847/2/1 812/3/1 811/4/1
f 847/1/1 848/2/1 813/3/1 812/4/1
f 848/1/1 849/2/1 814/3/1 813/4/1
f 849/1/1 850/2/1 815/3/1 814/4/1
f 850/1/1 851/2/1 816/3/1 815/4/1
f 851/1/1 852/2/1 817/3/1 816/4/1
f 852/1/1 853/2/1 818/3/1 817/4/1
f 853/1/1 854/2/1 819/3/1 818/4/1
f 854/1/1 855/2/1 820/3/1 819/4/1
f 855/1/1 856/2/1 821/3/1 820/4/1
f 856/1/1 857/2/1 822/3/1 821/4/1
f 857/1/1 858/2/1 823/3/1 822/4/1
f 858/1/1 859/2/1 824/3/1 823/4/1
f 859/1/1 860/2/1 825/3/1 824/4/1
f 860/1/1 861/2/1 826/3/1 825/4/1
f 861/1/1 862/2/1 827/3/1 826/4/1
f 862/1/1 863/2/1 828/3/1 827/4/1
f 863/1/1 864/2/1 829/3/1 828/4/1
f 864/1/1 865/2/1 830/3/1 829/4/1
f 865/1/1 866/2/1 831/3/1 830/4/1
f 866/1/1 867/2/1 832/3/1 831/4/1
f 867/1/1 868/2/1 833/3/1 832/4/1
f 868/1/1 869/2/1 834/3/1 833/4/1
f 869/1/1 870/2/1 835/3/1 834/4/1
f 870/1/1 871/2/1 836/3/1 835/4/1
f 871/1/1 872/2/1 837/3/1 836/4/1
f 872/1/1 873/2/1 838/3/1 837/4/1
f 873/1/1 874/2/1 839/3/1 838/4/1
f 874/1/1 875/2/1 840/3/1 839/4/1
f 876/1/1 877/2/1 842/3/1 841/4/1
f 877/1/1 878/2/1 843/3/1 842/4/1
f 878/1/1 879/2/1 844/3/1 843/4/1
f 879/1/1 880/2/1 845/3/1 844/4/1
f 880/1/1 881/2/1 846/3/1 845/4/1
f 881/1/1 882/2/1 847/3/1 846/4/1
f 882/1/1 883/2/1 848/3/1 847/4/1
f 883/1/1 884/2/1 849/3/1 848/4/1
f 884/1/1 885/2/1 850/3/1 849/4/1
f 885/1/1 886/2/1 851/3/1 850/4/1
f 886/1/1 887/2/1 852/3/1 851/4/1
f 887/1/1 888/2/1 853/3/1 852/4/1
f 888/1/1 889/2/1 854/3/1 853/4/1
f 889/1/1 890/2/1 855/3/1 854/4/1
f 890/1/1 891/2/1 856/3/1 855/4/1
f 891/1/1 892/2/1 857/3/1 856/4/1
f 892/1/1 893/2/1 858/3/1 857/4/1
f 893/1/1 894/2/1 859/3/1 858/4/1
f 894/1/1 895/2/1 860/3/1 859/4/1
f 895/1/1 896/2/1 861/3/1 860/4/1
f 896/1/1 897/2/1 862/3/1 861/4/1
f 897/1/1 898/2/1 863/3/1 862/4/1
f 898/1/1 899/2/1 864/3/1 863/4/1
f 899/1/1 900/2/1 865/3/1 864/4/1
f 900/1/1 901/2/1 866/3/1 865/4/1
f 901/1/1 902/2/1 867/3/1 866/4/1
f 902/1/1 903/2/1 868/3/1 867/4/1
f 903/1/1 904/2/1 869/3/1 868/4/1
f 904/1/1 905/2/1 870/3/1 869/4/1
f 905/1/1 906/2/1 871/3/1 870/4/1
f 906/1/1 907/2/1 872/3/1 871/4/1
f 907/1/1 908/2/1 873/3/1 872/4/1
f 908/1/1 909/2/1 874/3/1 873/4/1
f 909/1/1 910/2/1 875/3/1 874/4/1
f 911/1/1 912/2/1 877/3/1 876/4/1
f 912/1/1 913/2/1 878/3/1 877/4/1
f 913/1/1 914/2/1 879/3/1 878/4/1
f 914/1/1 915/2/1 880/3/1 879/4/1
f 915/1/1 916/2/1 881/3/1 880/4/1
f 916/1/1 917/2/1 882/3/1 881/4/1
f 917/1/1 918/2/1 883/3/1 882/4/1
f 918/1/1 919/2/1 884/3/1 883/4/1
f 919/1/1 920/2/1 885/3/1 884/4/1
f 920/1/1 921/2/1 886/3/1 885/4/1
f 921/1/1 922/2/1 887/3/1 886/4/1
f 922/1/1 923/2/1 888/3/1 887/4/1
f 923/1/1 924/2/1 889/3/1 888/4/1
f 924/1/1 925/2/1 890/3/1 889/4/1
f 925/1/1 926/2/1 891/3/1 890/4/1
f 926/1/1 927/2/1 892/3/1 891/4/1
f 927/1/1 928/2/1 893/3/1 892/4/1
f 928/1/1 929/2/1 894/3/1 893/4/1
f 929/1/1 930/2/1 895/3/1 894/4/1
f 930/1/1 931/2/1 896/3/1 895/4/1
f 931/1/1 932/2/1 897/3/1 896/4/1
f 932/1/1 933/2/1 898/3/1 897/4/1
f 933/1/1 934/2/1 899/3/1 898/4/1
f 934/1/1 935/2/1 900/3/1 899/4/1
f 935/1/1 936/2/1 901/3/1 900/4/1
f 936/1/1 937/2/1 902/3/1 901/4/1
f 937/1/1 938/2/1 903/3/1 902/4/1
f 938/1/1 939/2/1 904/3/1 903/4/1
f 939/1/1 940/2/1 905/3/1 904/4/1
f 940/1/1 941/2/1 906/3/1 905/4/1
f 941/1/1 942/2/1 907/3/1 906/4/1
f 942/1/1 943/2/1 908/3/1 907/4/1
f 943/1/1 944/2/1 909/3/1 908/4/1
f 944/1/1 945/2/1 910/3/1 909/4/1
f 946/1/1 947/2/1 912/3/1 911/4/1
f 947/1/1 948/2/1 913/3/1 912/4/1
f 948/1/1 949/2/1 914/3/1 913/4/1
f 949/1/1 950/2/1 915/3/1 914/4/1
f 950/1/1 951/2/1 916/3/1 915/4/1
f 951/1/1 952/2/1 917/3/1 916/4/1
f 952/1/1 953/2/1 918/3/1 917/4/1
f 953/1/1 954/2/1 919/3/1 918/4/1
f 954/1/1 955/2/1 920/3/1 919/4/1
f 955/1/1 956/2/1 921/3/1 920/4/1
f 956/1/1 957/2/1 922/3/1 921/4/1
f 957/1/1 958/2/1 923/3/1 922/4/1
f 958/1/1 959/2/1 924/3/1 923/4/1
f 959/1/1 960/2/1 925/3/1 924/4/1
f 960/1/1 961/2/1 926/3/1 925/4/1
f 961/1/1 962/2/1 927/3/1 926/4/1
f 962/1/1 963/2/1 928/3/1 927/4/1
f 963/1/1 964/2/1 929/3/1 928/4/1
f 964/1/1 965/2/1 930/3/1 929/4/1
f 965/1/1 966/2/1 931/3/1 930/4/1
f 966/1/1 967/2/1 932/3/1 931/4/1
f 967/1/1 968/2/1 933/3/1 932/4/1
f 968/1/1 969/2/1 934/3/1 933/4/1
f 969/1/1 970/2/1 935/3/1 934/4/1
f 970/1/1 971/2/1 936/3/1 935/4/1
f 971/1/1 972/2/1 937/3/1 936/4/1
f 972/1/1 973/2/1 938/3/1 937/4/1
f 973/1/1 974/2/1 939/3/1 938/4/1
f 974/1/1 975/2/1 940/3/1 939/4/1
f 975/1/1 976/2/1 941/3/1 940/4/1
f 976/1/1 977/2/1 942/3/1 941/4/1
f 977/1/1 978/2/1 943/3/1 942/4/1
f 978/1/1 979/2/1 944/3/1 943/4/1
f 979/1/1 980/2/1 945/3/1 944/4/1
f 981/1/1 982/2/1 947/3/1 946/4/1
f 982/1/1 983/2/1 948/3/1 947/4/1
f 983/1/1 984/2/1 949/3/1 948/4/1
f 984/1/1 985/2/1 950/3/1 949/4/1
f 985/1/1 986/2/1 951/3/1 950/4/1
f 986/1/1 987/2/1 952/3/1 951/4/1
f 987/1/1 988/2/1 953/3/1 952/4/1
f 988/1/1 989/2/1 954/3/1 953/4/1
f 989/1/1 990/2/1 955/3/1 954/4/1
f 990/1/1 991/2/1 956/3/1 955/4/1
f 991/1/1 992/2/1 957/3/1 956/4/1
f 992/1/1 993/2/1 958/3/1 957/4/1
f 993/1/1 994/2/1 959/3/1 958/4/1
f 994/1/1 995/2/1 960/3/1 959/4/1
f 995/1/1 996/2/1 961/3/1 960/4/1
f 996/1/1 997/2/1 962/3/1 961/4/1
f 997/1/1 998/2/1 963/3/1 962/4/1
f 998/1/1 999/2/1 964/3/1 963/4/1
f 999/1/1 1000/2/1 965/3/1 964/4/1
f 1000/1/1 1001/2/1 966/3/1 965/4/1
f 1001/1/1 1002/2/1 967/3/1 966/4/1
f 1002/1/1 1003/2/1 968/3/1 967/4/1
f 1003/1/1 1004/2/1 969/3/1 968/4/1
f 1004/1/1 1005/2/1 970/3/1 969/4/1
f 1005/1/1 1006/2/1 971/3/1 970/4/1
f 1006/1/1 1007/2/1 972/3/1 971/4/1
f 1007/1/1 1008/2/1 973/3/1 972/4/1
f 1008/1/1 1009/2/1 974/3/1 973/4/1
f 1009/1/1 1010/2/1 975/3/1 974/4/1
f 1010/1/1 1011/2/1 976/3/1 975/4/1
f 1011/1/1 1012/2/1 977/3/1 976/4/1
f 1012/1/1 1013/2/1 978/3/1 977/4/1
f 1013/1/1 1014/2/1 979/3/1 978/4/1
f 1014/1/1 1015/2/1 980/3/1 979/4/1
f 1016/1/1 1017/2/1 982/3/1 981/4/1
f 1017/1/1 1018/2/1 983/3/1 982/4/1
f 1018/1/1 1019/2/1 984/3/1 983/4/1
f 1019/1/1 1020/2/1 985/3/1 984/4/1
f 1020/1/1 1021/2/1 986/3/1 985/4/1
f 1021/1/1 1022/2/1 987/3/1 986/4/1
f 1022/1/1 1023/2/1 988/3/1 987/4/1
f 1023/1/1 1024/2/1 989/3/1 988/4/1
f 1024/1/1 1025/2/1 990/3/1 989/4/1
f 1025/1/1 1026/2/1 991/3/1 990/4/1
f 1026/1/1 1027/2/1 992/3/1 991/4/1
f 1027/1/1 1028/2/1 993/3/1 992/4/1
f 1028/1/1 1029/2/1 994/3/1 993/4/1
f 1029/1/1 1030/2/1 995/3/1 994/4/1
f 1030/1/1 1031/2/1 996/3/1 995/4/1
f 1031/1/1 1032/2/1 997/3/1 996/4/1
f 1032/1/1 1033/2/1 998/3/1 997/4/1
f 1033/1/1 1034/2/1 999/3/1 998/4/1
f 1034/1/1 1035/2/1 1000/3/1 999/4/1
f 1035/1/1 1036/2/1 1001/3/1 1000/4/1
f 1036/1/1 1037/2/1 1002/3/1 1001/4/1
f 1037/1/1 1038/2/1 1003/3/1 1002/4/1
f 1038/1/1 1039/2/1 1004/3/1 1003/4/1
f 1039/1/1 1040/2/1 1005/3/1 1004/4/1
f 1040/1/1 1041/2/1 1006/3/1 1005/4/1
f 1041/1/1 1042/2/1 1007/3/1 1006/4/1
f 1042/1/1 1043/2/1 1008/3/1 1007/4/1
f 1043/1/1 1044/2/1 1009/3/1 1008/4/1
f 1044/1/1 1045/2/1 1010/3/1 1009/4/1
f 1045/1/1 1046/2/1 1011/3/1 1010/4/1
f 1046/1/1 1047/2/1 1012/3/1 1011/4/1
f 1047/1/1 1048/2/1 1013/3/1 1012/4/1
f 1048/1/1 1049/2/1 1014/3/1 1013/4/1
f 1049/1/1 1050/2/1 1015/3/1 1014/4/1
f 1051/1/1 1052/2/1 1017/3/1 1016/4/1
f 1052/1/1 1053/2/1 1018/3/1 1017/4/1
f 1053/1/1 1054/2/1 1019/3/1 1018/4/1
f 1054/1/1 1055/2/1 1020/3/1 1019/4/1
f 1055/1/1 1056/2/1 1021/3/1 1020/4/1
f 1056/1/1 1057/2/1 1022/3/1 1021/4/1
f 1057/1/1 1058/2/1 1023/3/1 1022/4/1
f 1058/1/1 1059/2/1 1024/3/1 1023/4/1
f 1059/1/1 1060/2/1 1025/3/1 1024/4/1
f 1060/1/1 1061/2/1 1026/3/1 1025/4/1
f 1061/1/1 1062/2/1 1027/3/1 1026/4/1
f 1062/1/1 1063/2/1 1028/3/1 1027/4/1
f 1063/1/1 1064/2/1 1029/3/1 1028/4/1
f 1064/1/1 1065/2/1 1030/3/1 1029/4/1
f 1065/1/1 1066/2/1 1031/3/1 1030/4/1
f 1066/1/1 1067/2/1 1032/3/1 1031/4/1
f 1067/1/1 1068/2/1 1033/3/1 1032/4/1
f 1068/1/1 1069/2/1 1034/3/1 1033/4/1
f 1069/1/1 1070/2/1 1035/3/1 1034/4/1
f 1070/1/1 1071/2/1 1036/3/1 1035/4/1
f 1071/1/1 1072/2/1 1037/3/1 1036/4/1
f 1072/1/1 1073/2/1 1038/3/1 1037/4/1
f 1073/1/1 1074/2/1 1039/3/1 1038/4/1
f 1074/1/1 1075/2/1 1040/3/1 1039/4/1
f 1075/1/1 1076/2/1 1041/3/1 1040/4/1
f 1076/1/1 1077/2/1 1042/3/1 1041/4/1
f 1077/1/1 1078/2/1 1043/3/1 1042/4/1
f 1078/1/1 1079/2/1 1044/3/1 1043/4/1
f 1079/1/1 1080/2/1 1045/3/1 1044/4/1
f 1080/1/1 1081/2/1 1046/3/1 1045/4/1
f 1081/1/1 1082/2/1 1047/3/1 1046/4/1
f 1082/1/1 1083/2/1 1048/3/1 1047/4/1
f 1083/1/1 1084/2/1 1049/3/1 1048/4/1
f 1084/1/1 1085/2/1 1050/3/1 1049/4/1
f 1086/1/1 1087/2/1 1052/3/1 1051/4/1
f 1087/1/1 1088/2/1 1053/3/1 1052/4/1
f 1088/1/1 1089/2/1 1054/3/1 1053/4/1
f 1089/1/1 1090/2/1 1055/3/1 1054/4/1
f 1090/1/1 1091/2/1 1056/3/1 1055/4/1
f 1091/1/1 1092/2/1 1057/3/1 1056/4/1
f 1092/1/1 1093/2/1 1058/3/1 1057/4/1
f 1093/1/1 1094/2/1 1059/3/1 1058/4/1
f 1094/1/1 1095/2/1 1060/3/1 1059/4/1
f 1095/1/1 1096/2/1 1061/3/1 1060/4/1
f 1096/1/1 1097/2/1 1062/3/1 1061/4/1
f 1097/1/1 1098/2/1 1063/3/1 1062/4/1
f 1098/1/1 1099/2/1 1064/3/1 1063/4/1
f 1099/1/1 1100/2/1 1065/3/1 1064/4/1
f 1100/1/1 1101/2/1 1066/3/1 1065/4/1
f 1101/1/1 1102/2/1 1067/3/1 1066/4/1
f 1102/1/1 1103/2/1 1068/3/1 1067/4/1
f 1103/1/1 1104/2/1 1069/3/1 1068/4/1
f 1104/1/1 1105/2/1 1070/3/1 1069/4/1
f 1105/1/1 1106/2/1 1071/3/1 1070/4/1
f 1106/1/1 1107/2/1 1072/3/1 1071/4/1
f 1107/1/1 1108/2/1 1073/3/1 1072/4/1
f 1108/1/1 1109/2/1 1074/3/1 1073/4/1
f 1109/1/1 1110/2/1 1075/3/1 1074/4/1
f 1110/1/1 1111/2/1 1076/3/1 1075/4/1
f 1111/1/1 1112/2/1 1077/3/1 1076/4/1
f 1112/1/1 1113/2/1 1078/3/1 1077/4/1
f 1113/1/1 1114/2/1 1079/3/1 1078/4/1
f 1114/1/1 1115/2/1 1080/3/1 1079/4/1
f 1115/1/1 1116/2/1 1081/3/1 1080/4/1
f 1116/1/1 1117/2/1 1082/3/1 1081/4/1
f 1117/1/1 1118/2/1 1083/3/1 1082/4/1
f 1118/1/1 1119/2/1 1084/3/1 1083/4/1
f 1119/1/1 1120/2/1 1085/3/1 1084/4/1
f 1121/1/1 1122/2/1 1087/3/1 1086/4/1
f 1122/1/1 1123/2/1 1088/3/1 1087/4/1
f 1123/1/1 1124/2/1 1089/3/1 1088/4/1
f 1124/1/1 1125/2/1 1090/3/1 1089/4/1
f 1125/1/1 1126/2/1 1091/3/1 1090/4/1
f 1126/1/1 1127/2/1 1092/3/1 1091/4/1
f 1127/1/1 1128/2/1 1093/3/1 1092/4/1
f 1128/1/1 1129/2/1 1094/3/1 1093/4/1
f 1129/1/1 1130/2/1 1095/3/1 1094/4/1
f 1130/1/1 1131/2/1 1096/3/1 1095/4/1
f 1131/1/1 1132/2/1 1097/3/1 1096/4/1
f 1132/1/1 1133/2/1 1098/3/1 1097/4/1
f 1133/1/1 1134/2/1 1099/3/1 1098/4/1
f 1134/1/1 1135/2/1 1100/3/1 1099/4/1
f 1135/1/1 1136/2/1 1101/3/1 1100/4/1
f 1136/1/1 1137/2/1 1102/3/1 1101/4/1
f 1137/1/1 1138/2/1 1103/3/1 1102/4/1
f 1138/1/1 1139/2/1 1104/3/1 1103/4/1
f 1139/1/1 1140/2/1 1105/3/1 1104/4/1
f 1140/1/1 1141/2/1 1106/3/1 1105/4/1
f 1141/1/1 1142/2/1 1107/3/1 1106/4/1
f 1142/1/1 1143/2/1 1108/3/1 1107/4/1
f 1143/1/1 1144/2/1 1109/3/1 1108/4/1
f 1144/1/1 1145/2/1 1110/3/1 1109/4/1
f 1145/1/1 1146/2/1 1111/3/1 1110/4/1
f 1146/1/1 1147/2/1 1112/3/1 1111/4/1
f 1147/1/1 1148/2/1 1113/3/1 1112/4/1
f 1148/1/1 1149/2/1 1114/3/1 1113/4/1
f 1149/1/1 1150/2/1 1115/3/1 1114/4/1
f 1150/1/1 1151/2/1 1116/3/1 1115/4/1
f 1151/1/1 1152/2/1 1117/3/1 1116/4/1
f 1152/1/1 1153/2/1 1118/3/1 1117/4/1
f 1153/1/1 1154/2/1 1119/3/1 1118/4/1
f 1154/1/1 1155/2/1 1120/3/1 1119/4/1
f 1156/1/1 1157/2/1 1122/3/1 1121/4/1
f 1157/1/1 1158/2/1 1123/3/1 1122/4/1
f 1158/1/1 1159/2/1 1124/3/1 1123/4/1
f 1159/1/1 1160/2/1 1125/3/1 1124/4/1
f 1160/1/1 1161/2/1 1126/3/1 1125/4/1
f 1161/1/1 1162/2/1 1127/3/1 1126/4/1
f 1162/1/1 1163/2/1 1128/3/1 1127/4/1
f 1163/1/1 1164/2/1 1129/3/1 1128/4/1
f 1164/1/1 1165/2/1 1130/3/1 1129/4/1
f 1165/1/1 1166/2/1 1131/3/1 1130/4/1
f 1166/1/1 1167/2/1 1132/3/1 1131/4/1
f 1167/1/1 1168/2/1 1133/3/1 1132/4/1
f 1168/1/1 1169/2/1 1134/3/1 1133/4/1
f 1169/1/1 1170/2/1 1135/3/1 1134/4/1
f 1170/1/1 1171/2/1 1136/3/1 1135/4/1
f 1171/1/1 1172/2/1 1137/3/1 1136/4/1
f 1172/1/1 1173/2/1 1138/3/1 1137/4/1
f 1173/1/1 1174/2/1 1139/3/1 1138/4/1
f 1174/1/1 1175/2/1 1140/3/1 1139/4/1
f 1175/1/1 1176/2/1 1141/3/1 1140/4/1
f 1176/1/1 1177/2/1 1142/3/1 1141/4/1
f 1177/1/1 1178/2/1 1143/3/1 1142/4/1
f 1178/1/1 1179/2/1 1144/3/1 1143/4/1
f 1179/1/1 1180/2/1 1145/3/1 1144/4/1
f 1180/1/1 1181/2/1 1146/3/1 1145/4/1
f 1181/1/1 1182/2/1 1147/3/1 1146/4/1
f 1182/1/1 1183/2/1 1148/3/1 1147/4/1
f 1183/1/1 1184/2/1 1149/3/1 1148/4/1
f 1184/1/1 1185/2/1 1150/3/1 1149/4/1
f 1185/1/1 1186/2/1 1151/3/1 1150/4/1
f 1186/1/1 1187/2/1 1152/3/1 1151/4/1
f 1187/1/1 1188/2/1 1153/3/1 1152/4/1
f 1188/1/1 1189/2/1 1154/3/1 1153/4/1
f 1189/1/1 1190/2/1 1155/3/1 1154/4/1
f 1191/1/1 1192/2/1 1157/3/1 1156/4/1
f 1192/1/1 1193/2/1 1158/3/1 1157/4/1
f 1193/1/1 1194/2/1 1159/3/1 1158/4/1
f 1194/1/1 1195/2/1 1160/3/1 1159/4/1
f 1195/1/1 1196/2/1 1161/3/1 1160/4/1
f 1196/1/1 1197/2/1 1162/3/1 1161/4/1
f 1197/1/1 1198/2/1 1163/3/1 1162/4/1
f 1198/1/1 1199/2/1 1164/3/1 1163/4/1
f 1199/1/1 1200/2/1 1165/3/1 1164/4/1
f 1200/1/1 1201/2/1 1166/3/1 1165/4/1
f 1201/1/1 1202/2/1 1167/3/1 1166/4/1
f 1202/1/1 1203/2/1 1168/3/1 1167/4/1
f 1203/1/1 1204/2/1 1169/3/1 1168/4/1
f 1204/1/1 1205/2/1 1170/3/1 1169/4/1
f 1205/1/1 1206/2/1 1171/3/1 1170/4/1
f 1206/1/1 1207/2/1 1172/3/1 1171/4/1
f 1207/1/1 1208/2/1 1173/3/1 1172/4/1
f 1208/1/1 1209/2/1 1174/3/1 1173/4/1
f 1209/1/1 1210/2/1 1175/3/1 1174/4/1
f 1210/1/1 1211/2/1 1176/3/1 1175/4/1
f 1211/1/1 1212/2/1 1177/3/1 1176/4/1
f 1212/1/1 1213/2/1 1178/3/1 1177/4/1
f 1213/1/1 1214/2/1 1179/3/1 1178/4/1
f 1214/1/1 1215/2/1 1180/3/1 1179/4/1
f 1215/1/1 1216/2/1 1181/3/1 1180/4/1
f 1216/1/1 1217/2/1 1182/3/1 1181/4/1
f 1217/1/1 1218/2/1 1183/3/1 1182/4/1
f 1218/1/1 1219/2/1 1184/3/1 1183/4/1
f 1219/1/1 1220/2/1 1185/3/1 1184/4/1
f 1220/1/1 1221/2/1 1186/3/1 1185/4/1
f 1221/1/1 1222/2/1 1187/3/1 1186/4/1
f 1222/1/1 1223/2/1 1188/3/1 1187/4/1
f 1223/1/1 1224/2/1 1189/3/1 1188/4/1
f 1224/1/1 1225/2/1 1190/3/1 1189/4/1
f 1226/1/1 1227/2/1 1192/3/1 1191/4/1
f 1227/1/1 1228/2/1 1193/3/1 1192/4/1
f 1228/1/1 1229/2/1 1194/3/1 1193/4/1
f 1229/1/1 1230/2/1 1195/3/1 1194/4/1
f 1230/1/1 1231/2/1 1196/3/1 1195/4/1
f 1231/1/1 1232/2/1 1197/3/1 1196/4/1
f 1232/1/1 1233/2/1 1198/3/1 1197/4/1
f 1233/1/1 1234/2/1 1199/3/1 1198/4/1
f 1234/1/1 1235/2/1 1200/3/1 1199/4/1
f 1235/1/1 1236/2/1 1201/3/1 1200/4/1
f 1236/1/1 1237/2/1 1202/3/1 1201/4/1
f 1237/1/1 1238/2/1 1203/3/1 1202/4/1
f 1238/1/1 1239/2/1 1204/3/1 1203/4/1
f 1239/1/1 1240/2/1 1205/3/1 1204/4/1
f 1240/1/1 1241/2/1 1206/3/1 1205/4/1
f 1241/1/1 1242/2/1 1207/3/1 1206/4/1
f 1242/1/1 1243/2/1 1208/3/1 1207/4/1
f 1243/1/1 1244/2/1 1209/3/1 1208/4/1
f 1244/1/1 1245/2/1 1210/3/1 1209/4/1
f 1245/1/1 1246/2/1 1211/3/1 1210/4/1
f 1246/1/1 1247/2/1 1212/3/1 1211/4/1
f 1247/1/1 1248/2/1 1213/3/1 1212/4/1
f 1248/1/1 1249/2/1 1214/3/1 1213/4/1
f 1249/1/1 1250/2/1 1215/3/1 1214/4/1
f 1250/1/1 1251/2/1 1216/3/1 1215/4/1
f 1251/1/1 1252/2/1 1217/3/1 1216/4/1
f 1252/1/1 1253/2/1 1218/3/1 1217/4/1
f 1253/1/1 1254/2/1 1219/3/1 1218/4/1
f 1254/1/1 1255/2/1 1220/3/1 1219/4/1
f 1255/1/1 1256/2/1 1221/3/1 1220/4/1
f 1256/1/1 1257/2/1 1222/3/1 1221/4/1
f 1257/1/1 1258/2/1 1223/3/1 1222/4/1
f 1258/1/1 1259/2/1 1224/3/1 1223/4/1
f 1259/1/1 1260/2/1 1225/3/1 1224/4/1
f 1261/1/1 1262/2/1 1227/3/1 1226/4/1
f 1262/1/1 1263/2/1 1228/3/1 1227/4/1
f 1263/1/1 1264/2/1 1229/3/1 1228/4/1
f 1264/1/1 1265/2/1 1230/3/1 1229/4/1
f 1265/1/1 1266/2/1 1231/3/1 1230/4/1
f 1266/1/1 1267/2/1 1232/3/1 1231/4/1
f 1267/1/1 1268/2/1 1233/3/1 1232/4/1
f 1268/1/1 1269/2/1 1234/3/1 1233/4/1
f 1269/1/1 1270/2/1 1235/3/1 1234/4/1
f 1270/1/1 1271/2/1 1236/3/1 1235/4/1
f 1271/1/1 1272/2/1 1237/3/1 1236/4/1
f 1272/1/1 1273/2/1 1238/3/1 1237/4/1
f 1273/1/1 1274/2/1 1239/3/1 1238/4/1
f 1274/1/1 1275/2/1 1240/3/1 1239/4/1
f 1275/1/1 1276/2/1 1241/3/1 1240/4/1
f 1276/1/1 1277/2/1 1242/3/1 1241/4/1
f 1277/1/1 1278/2/1 1243/3/1 1242/4/1
f 1278/1/1 1279/2/1 1244/3/1 1243/4/1
f 1279/1/1 1280/2/1 1245/3/1 1244/4/1
f 1280/1/1 1281/2/1 1246/3/1 1245/4/1
f 1281/1/1 1282/2/1 1247/3/1 1246/4/1
f 1282/1/1 1283/2/1 1248/3/1 1247/4/1
f 1283/1/1 1284/2/1 1249/3/1 1248/4/1
f 1284/1/1 1285/2/1 1250/3/1 1249/4/1
f 1285/1/1 1286/2/1 1251/3/1 1250/4/1
f 1286/1/1 1287/2/1 1252/3/1 1251/4/1
f 1287/1/1 1288/2/1 1253/3/1 1252/4/1
f 1288/1/1 1289/2/1 1254/3/1 1253/4/1
f 1289/1/1 1290/2/1 1255/3/1 1254/4/1
f 1290/1/1 1291/2/1 1256/3/1 1255/4/1
f 1291/1/1 1292/2/1 1257/3/1 1256/4/1
f 1292/1/1 1293/2/1 1258/3/1 1257/4/1
f 1293/1/1 1294/2/1 1259/3/1 1258/4/1
f 1294/1/1 1295/2/1 1260/3/1 1259/4/1
f 1296/1/1 1297/2/1 1262/3/1 1261/4/1
f 1297/1/1 1298/2/1 1263/3/1 1262/4/1
f 1298/1/1 1299/2/1 1264/3/1 1263/4/1
f 1299/1/1 1300/2/1 1265/3/1 1264/4/1
f 1300/1/1 1301/2/1 1266/3/1 1265/4/1
f 1301/1/1 1302/2/1 1267/3/1 1266/4/1
f 1302/1/1 1303/2/1 1268/3/1 1267/4/1
f 1303/1/1 1304/2/1 1269/3/1 1268/4/1
f 1304/1/1 1305/2/1 1270/3/1 1269/4/1
f 1305/1/1 1306/2/1 1271/3/1 1270/4/1
f 1306/1/1 1307/2/1 1272/3/1 1271/4/1
f 1307/1/1 1308/2/1 1273/3/1 1272/4/1
f 1308/1/1 1309/2/1 1274/3/1 1273/4/1
f 1309/1/1 1310/2/1 1275/3/1 1274/4/1
f 1310/1/1 1311/2/1 1276/3/1 1275/4/1
f 1311/1/1 1312/2/1 1277/3/1 1276/4/1
f 1312/1/1 1313/2/1 1278/3/1 1277/4/1
f 1313/1/1 1314/2/1 1279/3/1 1278/4/1
f 1314/1/1 1315/2/1 1280/3/1 1279/4/1
f 1315/1/1 1316/2/1 1281/3/1 1280/4/1
f 1316/1/1 1317/2/1 1282/3/1 1281/4/1
f 1317/1/1 1318/2/1 1283/3/1 1282/4/1
f 1318/1/1 1319/2/1 1284/3/1 1283/4/1
f 1319/1/1 1320/2/1 1285/3/1 1284/4/1
f 1320/1/1 1321/2/1 1286/3/1 1285/4/1
f 1321/1/1 1322/2/1 1287/3/1 1286/4/1
f 1322/1/1 1323/2/1 1288/3/1 1287/4/1
f 1323/1/1 1324/2/1 1289/3/1 1288/4/1
f 1324/1/1 1325/2/1 1290/3/1 1289/4/1
f 1325/1/1 1326/2/1 1291/3/1 1290/4/1
f 1326/1/1 1327/2/1 1292/3/1 1291/4/1
f 1327/1/1 1328/2/1 1293/3/1 1292/4/1
f 1328/1/1 1329/2/1 1294/3/1 1293/4/1
f 1329/1/1 1330/2/1 1295/3/1 1294/4/1
f 1331/1/1 1332/2/1 1297/3/1 1296/4/1
f 1332/1/1 1333/2/1 1298/3/1 1297/4/1
f 1333/1/1 1334/2/1 1299/3/1 1298/4/1
f 1334/1/1 1335/2/1 1300/3/1 1299/4/1
f 1335/1/1 1336/2/1 1301/3/1 1300/4/1
f 1336/1/1 1337/2/1 1302/3/1 1301/4/1
f 1337/1/1 1338/2/1 1303/3/1 1302/4/1
f 1338/1/1 1339/2/1 1304/3/1 1303/4/1
f 1339/1/1 1340/2/1 1305/3/1 1304/4/1
f 1340/1/1 1341/2/1 1306/3/1 1305/4/1
f 1341/1/1 1342/2/1 1307/3/1 1306/4/1
f 1342/1/1 1343/2/1 1308/3/1 1307/4/1
f 1343/1/1 1344/2/1 1309/3/1 1308/4/1
f 1344/1/1 1345/2/1 1310/3/1 1309/4/1
f 1345/1/1 1346/2/1 1311/3/1 1310/4/1
f 1346/1/1 1347/2/1 1312/3/1 1311/4/1
f 1347/1/1 1348/2/1 1313/3/1 1312/4/1
f 1348/1/1 1349/2/1 1314/3/1 1313/4/1
f 1349/1/1 1350/2/1 1315/3/1 1314/4/1
f 1350/1/1 1351/2/1 1316/3/1 1315/4/1
f 1351/1/1 1352/2/1 1317/3/1 1316/4/1
f 1352/1/1 1353/2/1 1318/3/1 1317/4/1
f 1353/1/1 1354/2/1 1319/3/1 1318/4/1
f 1354/1/1 1355/2/1 1320/3/1 1319/4/1
f 1355/1/1 1356/2/1 1321/3/1 1320/4/1
f 1356/1/1 1357/2/1 1322/3/1 1321/4/1
f 1357/1/1 1358/2/1 1323/3/1 1322/4/1
f 1358/1/1 1359/2/1 1324/3/1 1323/4/1
f 1359/1/1 1360/2/1 1325/3/1 1324/4/1
f 1360/1/1 1361/2/1 1326/3/1 1325/4/1
f 1361/1/1 1362/2/1 1327/3/1 1326/4/1
f 1362/1/1 1363/2/1 1328/3/1 1327/4/1
f 1363/1/1 1364/2/1 1329/3/1 1328/4/1
f 1364/1/1 1365/2/1 1330/3/1 1329/4/1

